809345869
377661053
937297409
319958221
853936287
950668010
273960980
653854033
1
869631613
746019286
73393237
686536769
701156700
937959207
1
362042594
929451743
26158232
528475282
468931144
854444852
1
837492970
173375396
841833116
702839560
383991016
95019461
871437728
876678186
237436976
17182883
839012676
980007331
627598758
672401729
286399272
394032493
685937418
