6991678
8904554
6238351
5962674
3412133
5162645
9329179
6031373
7665476
7041960
5919559
6500000
4970089
6018794
5070497
3739010
8550862
4945299
9163340
8795840
7261387
6238351
7450490
6037677
4490917
5710478
6062996
7665476
5363191
8550862
5070497
8755010
6056651
7067424
5198958
8129171
6991678
7665476
3896722
6782858
4490917
4876525
5352420
7373215
5950309
4490917
5162645
4876525
4794234
4568610
6782858
4582436
7708712
9612701
5277712
6500000
6728914
5710478
7500000
5681435
5652587
6991678
5792863
6238351
7041960
4334314
8550862
5710478
4689633
6806256
8795840
5870835
4029238
3884446
9367544
6991678
5962674
4303510
8550862
7809109
6238351
4837636
5710478
8715476
4876525
8418861
6991678
6806256
7571008
7261387
6443316
8156091
6782858
4075475
5567168
9163340
7075961
3995835
4405360
8550862
6443316
6075717
5505559
6775097
5450275
7540325
4396430
6500000
9329179
5780995
4139113
4886293
5070497
7540325
7809109
7041960
8550862
8816784
4029238
8795840
6211860
4876525
9612701
7430953
6500000
8550862
5352420
7540325
7261387
4876525
4866775
5681435
4164762
9329179
4387514
6500000
6500000
7500000
4582436
8550862
7540325
5494448
3819385
8755010
7261387
6782858
8550862
4139113
5277712
6062996
5822680
7261387
6991678
9329179
5167816
3643901
7540325
8156091
3995835
6991678
6782858
7540325
5710478
5080650
8156091
5652587
6775097
4285982
4194830
7890497
3647835
7665476
6238351
5889039
7540325
8715476
4876525
4876525
5834667
6318967
5618219
5483364
5595457
3896722
6631024
7950610
5198958
8211145
6991678
3624265
4582436
5277712
5352420
8129171
3739010
5710478
7665476
8239318
7540325
4876525
8927619
5567168
5352420
7067424
4891184
9367544
8156091
3884446
8418861
4689633
6443316
6775097
4281609
6991678
5919559
5152320
5950309
5505559
5950309
6991678
5710478
5363191
4857044
3819385
6043992
6500000
7540325
8550862
7665476
5172993
5710478
8904554
5889039
6500000
6018794
4046010
6991678
4568610
7571008
5710478
7665476
7316718
4876525
6991678
6018794
5618219
6775097
7450490
3577384
4770277
7041960
9329179
5870835
8904554
6101282
5010010
6043992
6744236
6631024
6238351
7665476
4568610
4876525
7171573
5567168
5567168
6457402
3739010
3620345
9367544
4450225
7676210
4970089
6608835
6238351
7261387
6062996
3970904
4857044
3210302
8816784
9367544
5494448
7832051
7890497
7261387
4075475
8904554
6782858
5352420
4490917
8755010
4400893
5010010
4582436
8156091
4387514
4876525
4891184
5060364
5363191
8550862
5950309
4596298
8795840
3577384
5050253
8816784
4075475
4866775
9329179
6380608
4935417
6018794
7540325
6500000
4281609
5494448
6238351
7591681
3624265
7430953
8904554
4405360
4194830
5363191
5567168
8129171
6775097
5919559
8755010
6500000
6500000
4037618
7665476
5494448
7665476
7665476
8795840
4945299
5919559
8156091
6782858
6917793
4113575
7832051
6991678
4857044
5162645
8904554
5567168
4965122
6991678
5178175
8816784
8904554
4970089
7261387
6062996
4861907
6238351
6631024
7665476
8550862
5152320
7540325
6492864
7665476
7540325
5567168
6991678
8755010
6631024
6782858
8715476
5363191
6631024
4029238
8156091
9329179
4582436
6728914
6043992
3739010
4113575
6056651
4876525
6885518
6958619
6782858
5710478
8755010
4970089
6744236
4876525
7430953
7591681
4876525
3896722
6075717
4980040
6500000
5567168
8239318
5816700
3596876
5618219
8550862
6806256
3787110
4582436
6500000
3739010
7665476
7261387
7430953
7093111
5919559
8755010
4755956
8755010
6043992
7540325
4970089
4582436
6056651
5950309
4285982
6782858
4940356
7832051
4970089
6443316
7809109
4075475
6500000
4568610
4396430
5950309
3950207
8904554
5950309
8904554
6631024
5363191
5198958
6917793
7591681
9367544
5363191
6238351
6744236
3970904
4876525
5919559
6991678
4029238
5075571
6056651
4970089
4857044
5384808
5256583
8904554
5950309
4940356
6500000
5834667
6991678
7450490
5357802
9329179
8156091
8418861
6238351
4334314
5710478
7500000
6238351
7890497
5816700
6631024
9367544
6958619
6775097
4876525
5710478
5710478
7261387
8211145
6492864
7540325
5710478
7261387
4050210
4940356
6056651
4596298
5572811
8715476
7041960
8550862
5277712
7665476
6631024
4387514
8755010
6238351
9329179
6806256
6464466
7225112
8156091
8755010
8550862
7261387
5710478
5055306
6991678
6631024
3851830
6394449
5816700
4490917
4857044
5950309
7067424
3577384
6056651
4891184
5950309
7665476
4794234
7540325
5629645
8755010
3699207
6728914
6991678
6806256
6500000
5167816
9329179
6101282
7809109
6991678
7041960
5567168
3577384
6782858
9612701
6056651
3577384
6018794
6443316
8795840
7171573
7373215
8550862
6500000
6380608
4891184
6238351
8550862
6500000
5816700
7500000
6245003
9163340
8156091
4770277
7708712
6101282
4164762
5483364
7171573
6056651
6238351
4755956
7261387
4876525
7041960
6492864
7316718
4046010
3739010
5710478
7171573
4886293
3819385
4194830
6492864
4940356
3896722
4285982
7430953
7665476
3530843
5075571
6608835
8755010
8211145
4837636
6101282
9367544
9367544
4285982
4930483
7665476
9367544
4582436
8156091
5494448
8129171
8550862
7665476
5870835
5652587
4164762
7067424
5834667
8795840
5950309
5277712
6782858
3412133
4075475
8156091
7261387
5352420
6238351
7665476
4770277
6623611
6958619
6744236
6782858
4891184
6238351
5889039
5363191
7540325
6238351
5060364
7261387
3896722
5919559
4299123
6782858
8239318
5246054
8156091
4490917
5822680
6056651
9367544
7665476
5567168
6991678
8418861
5246054
5494448
8927619
4582436
4441223
6238351
4490917
9367544
6775097
5950309
4432236
6782858
5572811
5950309
3896722
4490917
3995835
7500000
8211145
7500000
6056651
6101282
5267136
6318967
8156091
8550862
5267136
3896722
6101282
7540325
6991678
6631024
4876525
6394449
3577384
3210302
6991678
6631024
6806256
7225112
9367544
6238351
5277712
6631024
3412133
7067424
9367544
3819385
7450490
8156091
6238351
7041960
5035123
5162645
4450225
6991678
6885518
6631024
5267136
6806256
3412133
7665476
7225112
5919559
7540325
4387514
8211145
8904554
7914334
3970904
6238351
5834667
7665476
6775097
4582436
6991678
8904554
4794234
9367544
6238351
6500000
4164762
7540325
9612701
7261387
8550862
4596298
6991678
5050253
4876525
6031373
4582436
4689633
4876525
6631024
5567168
6782858
7832051
3480798
6775097
7540325
6775097
8156091
7540325
7316718
3596876
8755010
4046010
4876525
3896722
6991678
7665476
7591681
3577384
6806256
4970089
6806256
6991678
6775097
4876525
8795840
6500000
3819385
7075961
8156091
3751000
9329179
4490917
6991678
6775097
7075961
6443316
8904554
5652587
3739010
6744236
5198958
5450275
7540325
7093111
7540325
7540325
7540325
4945299
4050210
6457402
3900820
7075961
7261387
5595457
4113575
5080650
5152320
7093111
6043992
5162645
8550862
8156091
6991678
6991678
5162645
5010010
5494448
7500000
5710478
4970089
5363191
9367544
5950309
9329179
3751000
5612518
6238351
4139113
7890497
5629645
3412133
8550862
5950309
6775097
6775097
7093111
4075475
6806256
7665476
7665476
4596298
5792863
5618219
7316718
3210302
7540325
7225112
4876525
8927619
7041960
5950309
5162645
5162645
8904554
6775097
4450225
9329179
4876525
4075475
5363191
6056651
5357802
6631024
6492864
6238351
5494448
4876525
3751000
7450490
8129171
4794234
5618219
6238351
5572811
7665476
4405360
6211860
5629645
6238351
7665476
3412133
4582436
7041960
9612701
7665476
7540325
6062996
9367544
5816700
4876525
3739010
3995835
5167816
5870835
5162645
6775097
7540325
6457402
4396430
4794234
5277712
6631024
7665476
9367544
5780995
7665476
3896722
8239318
7500000
5710478
6782858
7225112
8550862
4866775
7540325
7665476
6500000
7261387
8156091
8904554
5870835
8550862
6991678
7093111
9329179
5710478
5962674
5612518
7571008
4285982
8927619
6056651
4945299
6775097
5950309
3751000
9329179
6991678
5950309
5950309
9329179
7041960
7571008
3896722
6443316
7890497
6238351
3819385
4050210
6782858
6623611
4582436
3412133
4396430
6238351
4075475
8904554
5075571
8904554
6464466
3819385
5950309
5618219
7962845
4876525
6991678
3739010
8129171
8904554
7540325
6238351
5710478
8550862
8550862
4876525
5330953
4029238
7665476
6631024
8550862
7665476
7665476
4490917
6211860
7261387
7665476
6775097
6238351
3819385
6991678
6631024
7665476
5494448
4876525
