7338255
9238505
7010705
8645807
6741660
8411301
6778642
5643579
8102467
8709189
6924593
9287086
7965550
4566179
9651423
6264981
6822755
9723681
8015608
8028074
5074445
6837396
8052948
3293933
6127804
4306970
5296224
6029095
7579577
9281701
8919079
9129621
9069177
8090116
9795406
7003569
5792235
6674577
5652432
7473285
7889866
9047098
7651796
7845380
3041380
7819845
8363610
6939019
7459892
6561249
9536769
9367496
9641057
9287086
6208864
7566372
3653764
9672123
8435045
9063662
9805609
6445928
6902897
5408326
9967446
4832183
8668909
8885380
8267405
6726811
4236743
6216911
6689543
9896968
7207634
6561249
7703894
6939019
4748683
7158909
9096701
4904079
8777812
7235329
5945586
8071554
9178778
4577116
5554277
8417243
8552776
1884144
9651423
4663689
8102467
6086870
5133224
7526618
7039175
9769850
5094113
9982483
9041569
8315647
5953989
9156963
7088722
8387489
9800509
8224961
5296224
9505260
6391399
7742737
4117037
3201561
4663689
8381526
5678907
7513320
8028074
9216831
7179832
5361902
6682064
8157817
5181698
5343219
7990618
9723681
4832183
9222254
5757603
4893873
9841238
7749192
5527204
8703446
7697401
8339663
7697401
8628440
5536243
8834590
4893873
6778642
7256031
5545267
9494734
3840572
9552485
6160356
8817595
6881132
8754997
8083933
9019422
2747726
9656602
9211405
9118661
8108636
7466591
7774959
4455333
2854820
4863126
4609771
7235329
9805609
7971824
5722760
6375734
8009368
4748683
7151922
5399073
9739095
7599341
8558620
9249323
5315072
7067530
6837396
9962428
9856468
4201189
9441926
9484196
6953415
5748912
4213074
4488874
9452511
8511755
5634713
5380519
9505260
8470536
6336402
8387489
9604685
8657365
6902897
8896627
5616938
8680436
6111464
7877181
5792235
9682457
3324153
4364630
6367887
8517627
6152234
9552485
9080197
9656602
7513320
9896968
9856468
3413209
5472658
3694590
7459892
8851552
8351645
6674577
8991661
9367496
9058144
2598075
3528455
7762086
8488226
4432831
8657365
7553144
8476437
8182297
5142955
7151922
5652432
5044798
9646241
7690902
3074084
4924428
4914264
9651423
9211405
8605230
6910136
9091203
9091203
9189667
9063662
5472658
5843799
7996873
5818074
4080440
5074445
9615091
7235329
6383572
9957408
3968626
8176184
9922196
7839004
6312685
6576472
5305656
4283689
3074084
3170173
7579577
8570296
6859299
7290403
8458722
8834590
5783596
3024896
3827531
3170173
8697699
6895650
3217141
7723340
7819845
9415411
7984358
3734969
3383784
3398528
9836156
9124142
8452809
5258326
7533258
5361902
5661271
9383495
7479972
5536243
9146036
9069177
4685082
8879751
7179832
4341658
5563271
8570296
4620605
7095772
5563271
4213074
6946221
8546928
4466541
5172039
8599417
8046737
5678907
7959270
6652066
7123902
8616843
4522167
9019422
6637016
8009368
4924428
4652955
5670096
7638716
8919079
8194509
5181698
6719374
8157817
8794883
8958235
9661779
6144102
3626292
7908855
7619054
8564460
5380519
4466541
6407026
8851552
7074601
5123474
8464631
9211405
3057776
7749192
8375558
8772114
5852349
7755642
2819574
9118661
9052623
7053367
6771262
4398863
8986099
5877924
8127114
8127114
3917907
7946696
7358667
8369586
9661779
6924593
8913472
5490901
4821824
7559761
7228415
8969391
8446892
7807047
6078650
6399218
7625613
2906888
6756477
9178778
9630679
6599241
4432831
6637016
9074689
3499999
2397915
5809474
4706378
6756477
7664854
7768525
8411301
4663689
6037382
8381526
4934571
7553144
8369586
8003123
4018705
8997220
8800567
7996873
9557718
6152234
3788139
7619054
5860886
6176568
4706378
5200960
9841238
5818074
9589055
6674577
6461423
9800509
4466541
7625613
9521028
8046737
8176184
5554277
6741660
9340769
9124142
7716863
7716863
7221494
5894912
7158909
8823263
8476437
8423181
6461423
4620605
2958039
9800509
6946221
6989276
9810707
5995831
5343219
8668909
6800734
9378165
9831072
9635869
5937170
4236743
7934102
9281701
9907067
6584071
6974954
9211405
9330058
7419567
8339663
8737847
6989276
5722760
6492302
9468367
8363610
9324697
6407026
9388822
5191338
5563271
9957408
6029095
7632167
6815423
5463514
4031128
7736277
9927234
9041569
6614377
9790300
7200693
5843799
7283542
9846318
6476881
8218879
6674577
6637016
6515365
8285528
8552776
2499999
2539684
5687705
4330126
7406077
9651423
6453680
6793378
6192737
5399073
9992496
5979129
7338255
3570713
8947065
7412825
7592758
7813449
6414825
6837396
8188405
9362156
7010705
4914264
9473646
7742737
5142955
4954795
6982119
3827531
8458722
6499999
8552776
7703894
8963815
8339663
9531525
7499999
7658328
2418677
8108636
4544226
5705260
6383572
7214567
7546521
6989276
9335415
9002776
7883526
8709189
6644545
6053923
3993744
9431329
9484196
7762086
9578621
3471310
7883526
9578621
7473285
5371219
6438166
7486654
5004997
6530696
9346121
8760706
6953415
6029095
5826662
5277309
9917155
5343219
8663139
5937170
5928742
5826662
6704475
9205975
8015608
5296224
4544226
9972461
3398528
4421537
8333665
9420720
9521028
8363610
4272001
4224925
6312685
6248999
9024964
2334523
4466541
5581217
9292469
7625613
6837396
8552776
4189271
5333853
5123474
3721558
5581217
5757603
7851750
8046737
5616938
8096294
8494114
5380519
5652432
8657365
7235329
7883526
9886858
5563271
9080197
7466591
3542597
9836156
4544226
6499999
6637016
8309632
4984976
6800734
5766280
8363610
7883526
2109502
8576128
5800861
7671374
7984358
5509082
7479972
9728822
7978094
4153311
4018705
4642197
8363610
4376070
6591660
8040521
8806246
5389804
9276312
9687619
8267405
3024896
5172039
7559761
9308597
9287086
9069177
6667082
7625613
9630679
4811444
5267826
7235329
6414825
7807047
9547249
5361902
9615091
8902246
8766412
6667082
7902530
8417243
6453680
8083933
6127804
8845902
9932269
5962381
6304759
6734240
9002776
8611038
5616938
8363610
9167877
9216831
7372244
5064582
7612488
5084289
6967782
3008321
4706378
9815802
6127804
9604685
4924428
8823263
8570296
8616843
8009368
8255300
7762086
4631414
4444096
9625486
4706378
7392563
4934571
5722760
5454355
5852349
9069177
6771262
9457800
9677292
5731491
4068168
5652432
6045658
7566372
9972461
8120959
7978094
5426784
7896200
9265526
9552485
6200805
8991661
8267405
7539893
8558620
7439757
8034300
8726395
9780080
6844705
9173329
9205975
6523035
3981205
6037382
5581217
9356814
8170066
6756477
5687705
4769695
7297259
5835237
7553144
8417243
5722760
7908855
9351469
7221494
9881800
5722760
4283689
9211405
5860886
8709189
9431329
7927798
8634233
7358667
8834590
7605917
5696489
9184224
9036038
9505260
3748332
7651796
8963815
9952385
9118661
5417563
6800734
6859299
8273450
8494114
7826237
8674674
7426303
6103277
9536769
4685082
9167877
8628440
6086870
9249323
9578621
5435990
9810707
4283689
4642197
5590169
7826237
9394146
9102196
8789197
4477722
7392563
8634233
6469156
5527204
6989276
9058144
5563271
8891005
4165332
7787810
5643579
8381526
5536243
9723681
7819845
7559761
5928742
7533258
6383572
5004997
5133224
7664854
8616843
2397915
5572252
3339161
8333665
8564460
8464631
8071554
7883526
5962381
8697699
4790615
4904079
5445180
5563271
4236743
6012486
6561249
6734240
8743568
4609771
9356814
5835237
9836156
7453186
5903388
7889866
8090116
5014977
6453680
8315647
9932269
5435990
9825984
8363610
6445928
6866585
9682457
9356814
5181698
4663689
3584689
7755642
8435045
6492302
9682457
6095079
6822755
9718538
6837396
6953415
8891005
5696489
7978094
4727578
5142955
9346121
5962381
9200542
4954795
9473646
8102467
7372244
9452511
8357630
9599478
5608029
8083933
9967446
4994996
7358667
6200805
2872281
6208864
9436629
4821824
9583839
7060452
8321657
5210565
8913472
6256995
9604685
5258326
9521028
9151501
6830079
8345656
8505879
7200693
9096701
4104874
2765863
8333665
8564460
9254727
7539893
6208864
8206703
7729811
8114800
6917368
8969391
6704475
3074084
4811444
7228415
8581956
7067530
8924683
5953989
5103919
5731491
7262918
2729468
8363610
6430395
4832183
9008328
9987491
6111464
4006244
3138470
2765863
7946696
9907067
7486654
5928742
3542597
8212794
9287086
8991661
8399403
9085702
8997220
7186792
6352164
6591660
3943348
9200542
6734240
9531525
5239274
9876739
5463514
8009368
8657365
4780166
9641057
5074445
9547249
5616938
8071554
8267405
8616843
6931810
9641057
7774959
9173329
5239274
