928828777
871494398
861985132
466401617
566396871
278826852
462493122
371792077
778901941
777384301
157632173
898674375
800886311
813258252
389494488
577402398
213139935
289770949
369564925
548332660
566973679
45563770
574250674
549651754
970042903
706622667
819237672
956742645
225645041
941664845
551531018
792239580
405289268
91498069
749556317
838133162
488372741
941677083
906577555
779782629
712732427
861542758
422470964
344652737
863780488
6686810
737680223
999632748
460378065
525892780
167143525
159477150
931680011
327056960
852136477
953989806
285230067
28224
651900310
443154677
257288280
342249225
90252138
256734198
696527146
203221704
107722720
173140892
397705651
495707860
958381550
119923280
927942101
40000
426404386
1
413227279
837202592
800177941
437820772
169274148
188440810
104565603
981231632
635352055
812851661
434084445
983074470
634270334
159934762
399025156
945422674
749472903
14799294
287390879
201547235
961912702
198247668
200970183
473447878
896301905
443082068
343504468
266315755
559160232
396440872
811780501
321419236
773030726
367182430
64571435
350999568
994184962
564840831
118493703
680587261
897805724
302618044
406298594
554731349
424366964
50289091
155523220
377658730
38603736
336188296
438478616
390470317
58002012
104683492
731422230
647747570
566951615
136519071
182671159
832943068
251066836
660246846
4663456
602148007
626949871
93458923
481820898
385266376
862327366
63916363
211460487
848407977
714369101
747146723
193150613
1
872040779
1
494009998
435198285
385472581
852592370
88844263
49314543
15175227
316672052
96419397
390458819
66458050
503873741
435224916
706729211
366633702
628773044
840149183
458838949
648788477
133939892
354901622
183933765
108441878
983731318
186477156
756595407
927108923
455839990
713785883
780087662
485146122
570605224
994391817
4811297
55041870
71308486
770236446
1
857114772
30476711
817890102
1
563011989
262282859
96100777
474760031
106787632
61369112
869859049
50444228
336062711
811938072
539988668
517726977
759395875
700313955
192806435
239620781
578351637
376836070
938090924
280888161
596620953
553839733
24283976
932124776
460879201
791410863
929661577
631476464
335831136
508339956
81948245
477912463
901712070
972781208
641076320
415209874
194211067
400792938
969847486
293083397
165704159
136001489
846450777
616929910
810415679
375478868
90463896
205649269
271968478
856743321
609756037
126190736
36100
210367441
121783564
311026325
448233737
809357976
839603583
247325438
844460824
92
556305605
120151031
679328646
186602155
765554297
498394027
955865100
768924942
679259991
709580237
699424297
681270042
606188033
374985871
198
41454099
937837435
788855650
592171590
210192004
69187944
684904916
101948113
853410651
463992654
871192811
942451897
198172955
290018348
286080370
579994747
275386025
434536088
858008796
425525314
288560862
330077928
474285119
444145125
487619523
807387565
246227200
90451105
399315901
811327283
351964917
998052696
3082
210507684
545441355
391801027
631756943
933273386
528862851
694875421
398208721
637816067
644212450
42282232
1
143691391
702866212
787743905
676509102
397024019
596532337
492408268
947251184
657900872
950383048
75964965
977165635
854279561
1
500782768
1
918300414
593838160
188024138
809082968
1
289668646
710504669
841131488
574583755
503951194
1
830934078
398586708
229331124
524454195
772433961
795255365
745150645
1
334292841
720349251
178318843
843207529
13817921
210674230
585855092
573800592
355779940
554831262
225938897
239140053
810200316
768785689
756480325
952260700
583588921
795651697
584549127
473762325
466069314
710501557
216866007
551567724
298332838
91129836
854706147
332321594
734841764
291038640
951197147
997457031
187884679
78299613
489587007
5116287
738033404
868298265
40648241
786714969
456625059
604554846
990099338
106
14536
1771
958193939
960585974
135722197
208563692
903800792
139505668
592343632
923047212
887619645
895119993
815912847
417802300
886325195
337130854
227984885
769200120
38025
80317432
360553690
592908360
370236089
990375815
337692802
154437975
651927192
309740518
18916
954128378
538673300
437596433
758731379
567802579
861218336
978287205
4999
777124873
513076415
678820401
982209555
366662037
77853385
151261547
531543391
468968452
421602251
363596698
507135188
933612493
226834178
540799815
65049621
981923829
959499593
435847628
827440017
169281063
691512767
109515099
46
639475688
663795646
939641740
905900230
791037514
1
429836715
514676592
580519374
126317870
989991971
931268397
993552337
353231218
693293781
649329136
416924191
19307
54809267
786033107
671704448
936695190
820604443
420703332
455348819
609387133
230348225
443895074
174189093
710785233
981677831
375473971
622363047
145369528
121768859
47605926
952866707
384334296
290938839
504031805
963673780
646021482
439450078
921369140
947291413
196748071
262377936
324150412
661904516
62456689
487325003
428548500
862
271987549
651226989
632041005
302052751
102866715
671113382
568345318
646729508
710396552
223544175
505365899
169701868
244713789
787258543
839274685
974645518
373109280
277383925
1
968308627
363046183
84529678
275834435
172589025
507915432
763160429
978385473
409795680
211375990
636589127
579697559
146453095
2702
491919116
136541418
761433430
35941342
886166512
797973541
381127410
680146843
662505317
489625370
245362653
248504505
268796437
474625241
266226903
747475340
1
55235591
990767237
232
756253729
814175865
210746613
27556
632800257
447491401
724564305
427468262
86130841
363741003
812129525
25649248
413087281
945939994
162732068
460754314
911068610
1
546090513
605677067
338300443
67970420
85273692
344386251
474514155
652627290
413767431
7022
357920127
690145287
854667121
536433471
300672633
782848808
197
924252661
762617171
402143000
571082333
909295297
952495747
19009920
5887
562622285
391153267
988698904
240602897
5672
151450947
888937609
76506175
939080026
740135085
884764646
195
437845083
12829896
668114262
545500147
831716673
726444104
784164074
853840348
617725018
619231564
398258055
597175621
199112147
390466523
271951
733939566
115765149
193239251
876130861
75647541
536941366
707326043
703998573
837337340
982523661
586873279
1
6329
17206
665829290
289311496
587817363
196843273
111154410
579541251
326402020
2028189
622645620
94016652
100702791
793109014
257411069
351051671
435304047
12465961
939506567
138290166
154376409
133663447
903598690
30836896
556192443
237280787
348923610
1129
343605564
41144060
1
228472584
69203793
664470136
986559543
556290149
901964297
467304066
360738207
243916325
360339543
638201489
8779
14052916
149241893
78584731
768561
728421259
789245847
578500829
319750123
472053213
272331503
495276866
544528968
688917665
16654
372148143
281309717
558527940
89632917
756675495
150181858
5364661
257339569
506070337
581898090
15806014
83304795
163061095
700800106
745205174
833681202
341121277
943636776
112928147
353660053
831003409
579232144
435181352
503727313
1
716148334
845231735
625859110
77788037
753131583
866154293
210316030
420604000
326179697
770073646
425487138
695658581
678994
799828253
60430734
912069576
1
15932
168646766
54572317
50559356
673142910
428216963
989011034
560173422
965161208
467484476
555623151
37636
800354343
915587784
657535646
254017842
1
1
808369073
402106169
275132845
410352124
532998454
384778920
934236227
975429927
264787892
589039389
451952366
30590733
906702633
188526985
221505118
520519647
696151666
416088913
338399675
991837899
931407134
938747727
973982
55310402
909451530
181450746
247087593
20406771
823197632
1036
638304958
264066221
277536157
507045438
718337088
4187
783462196
162573072
717588820
364804550
734041801
376307854
407047526
218258149
124145322
164780306
428337783
733448383
776026525
450263416
943962890
255555119
209416660
965626400
787075291
460881542
541939983
687829033
855451239
261123625
882388044
618432377
652502507
211725056
738602152
732442747
174248528
553721466
186
20145467
20319545
422566362
393671390
729031074
877426959
127896653
38809
99702218
64967731
115769495
855274438
846845562
756974088
455711396
873520188
254253745
484066733
314870999
284607413
900477972
927261049
134533387
464251132
1
7504
468177987
298479248
185624840
107529739
772573307
1712
751997952
872851309
10028035
909096077
38833652
854178491
576898507
550070004
886623194
588721584
708416223
181452661
970581479
129512855
73339567
44289747
68686733
9388633
601653201
722524343
45453970
191711032
359419291
659427895
323110736
497305838
15754
306133116
61763826
604697874
242549858
645023568
92275560
782480303
1
337000887
64533127
944522233
477355545
864112485
526998114
958556939
908604458
933011169
820568890
735923000
422819220
535780549
185507169
624852762
517499301
79123377
893703148
11632534
31872
805422906
581924701
360382230
840973164
244563395
82990315
351746396
638677620
289172656
46486096
37249
973916443
891286248
378861144
117850323
694307184
1
711156432
637320183
426535128
762488281
639244692
427360912
921329527
182136056
19111
461807996
774553219
9181
900195977
58428049
425811
279885952
918695328
399092223
478463373
816665836
650236852
5568923
794868762
733348602
2927
697040556
135657959
914453029
639882762
488421446
254266036
359541929
1
1
225846524
675919703
334930866
260744733
137717664
150259328
276260906
830066718
3118892
421956151
390451434
229600143
302045090
780249268
192584049
144218555
918706037
566521287
901021269
223514267
217330695
472800858
109940608
983912870
308472654
377928916
809103976
316201818
235754492
76266985
3656
199869361
938534634
212958
980463654
19964720
741835993
437502244
671671225
567236769
162903869
726865881
719856224
713209647
192187129
18529
5337880
390730516
773794198
132164349
811648680
324610780
828647545
218717441
857872202
938293478
926500046
226245058
69942726
61591412
82583945
637475342
857069404
454928219
443846106
328319815
772654791
962401948
849800293
671897271
161760553
185000822
690416111
450680836
869488080
543387222
860139167
691157504
154824143
584239959
39287286
146446
751063705
228572524
671293727
669687577
512147003
473830478
141130141
790482851
851218723
892377978
840795477
840100815
1666822
572848228
392337202
417365938
893721497
79612
845429163
352
50705807
334153489
629684032
914133562
325634857
646631637
902775027
624144253
20596245
343610352
246834513
543214766
504560975
548530044
358267891
598483364
78519352
344334299
911550079
145685080
605885760
514632927
753724755
513193581
10342376
303225433
92962906
250852959
993475393
292850658
274807323
645143552
128373666
182132407
769272337
316407563
854677166
27901234
947056546
833639019
105219948
83529559
242604673
561136585
882101216
129462782
189066736
1
626195968
10012
637467082
881146864
905172439
712979513
203107108
828710801
80358383
297904704
908690763
32027180
1841628
110799840
169403360
296736489
935827841
200052536
308177200
122232305
858033401
704551969
141676161
388767658
150216550
586036994
520040988
565226278
714450196
204629555
88958732
131234618
585246174
529320530
723379476
234052897
472546902
613665764
419236687
682118831
411576748
240734433
812105611
974926315
633090523
772460546
17188888
869503650
2017
130329529
486623937
139748968
916309482
257072107
49116648
14197
904545128
9624964
501230238
329100763
743802986
175381180
50752668
824826178
507926676
659439037
248591994
523497039
475047421
786047933
806830601
717752206
585931948
87264295
235967021
652841647
185264052
251031731
112033820
79
573277386
49580393
286632591
838573209
405546651
228632638
558429351
414987631
485798267
35404801
272877779
125154473
89402
266476779
153167412
984319375
520504617
899982595
366481269
83573263
44457176
462332968
201679258
886123793
459032310
163314280
336423273
77236215
375933004
143541127
433981871
618661431
132485736
654363092
80241185
172794836
7261
982238000
503543602
236238990
173841102
449430328
363051921
380903177
546675518
23690558
714724453
426728929
791051185
456816616
210754524
784099037
425618976
929221119
873954223
4087777
618126027
255905491
542990062
844740136
966511163
900047436
604629332
316007491
27889
50422121
839399508
840070061
368722
240989819
463886328
398752472
109887632
1932823
599900543
136517687
403559774
907697904
860061178
700607719
391822891
224690297
1794196
243217543
283802804
322440509
205543871
694685108
220043314
424140684
474267860
233108
701482206
489111657
571488240
637268
874009947
792732725
262829861
211907896
258861967
941020167
90849235
685126425
148172476
914470502
8518
368094735
1
399818377
528245517
862207689
30227478
74446
754348342
22488441
358120533
927221578
964975734
778095967
507092797
746315235
93005312
247467466
103186256
104596050
782769642
13642742
682890378
901482012
993989960
357127118
877882993
814752112
499758228
1082
431271667
968677154
326183373
727222775
989137823
393877582
540950674
538638141
593695318
21856130
144547506
925109569
943399381
822984579
862408655
562410319
15577
752812283
399475272
610229362
747582748
734944556
702998870
755982869
804693953
109885421
941081346
308946327
393997966
350134190
326543708
477198744
876302670
401772678
2335546
20809249
875989171
652817485
382089097
392239421
701976340
205008827
15975377
666887610
597200700
1792
290272379
17237532
906256453
857224534
99440978
547152458
149744651
296752745
681454904
819715160
447788206
599660590
606448618
516531093
72800809
748421641
670228935
718356330
979927093
531634773
109314047
887709797
720711390
625495866
772346756
312874621
307591781
589750626
707661091
820174212
4484377
4590685
447142792
701938085
795498538
491672459
983884694
545179089
932013527
441896337
999761870
726287104
439551162
820349031
397787906
143658262
609422767
228040876
768062486
571673836
241945511
43268597
58930730
407042118
615215493
155214268
83697494
889238183
86
31347401
461271660
404508509
731908747
590840669
434196219
651896727
1
693988447
147216282
454328434
619043659
31947051
601154318
900430045
549314294
311908318
497478834
96593655
149899
526277599
899633267
854634734
672782435
779158617
763281686
706622805
940962250
237677349
520094979
747348797
2494570
150777970
667657651
703577201
1
249451070
394407085
61055732
219458235
137510213
694039621
1597
368224970
204029242
592419216
867501006
176983340
875739353
625530425
983214947
311319707
524399296
914277556
135145578
390908730
480989031
817620702
610037691
446447870
55572011
850063267
758670393
599969099
21644748
532278573
86785937
1
309962493
10686273
9389328
300089496
293126042
823500149
282373789
221559804
536634269
784249013
839813491
970711754
618250051
129561786
1
390278063
452942703
248859924
973709703
649848917
353505792
456879563
842404705
459698746
786650980
377717312
273085114
565346553
368107161
484247429
273252054
125414248
791878322
200390246
57375693
963490878
753446179
37607152
18682381
900701441
440076758
28582620
411383902
943190829
420747605
771213684
379740186
875377475
699994356
719843523
74835340
588474590
907552495
150188785
593739712
566711254
823913922
978002009
7627
82911265
442471606
319880300
776820292
857283848
72598378
402125242
984310209
448272416
72698903
522507132
508592483
5285189
893795612
893999441
1
591887416
894415842
756798469
321613613
954805971
68141300
442439214
873443994
95688191
721501649
466564221
820379223
920543129
16768172
958811422
13820
605922249
42878431
1
352042471
772515630
677093741
14935216
3817351
850860286
678659266
516131949
348386206
773568764
832349405
9046
168745687
931923070
229330416
964741981
172764826
20476
544437125
514408684
346239076
823729916
307767600
151
271444658
718572793
1
884730250
143581718
559374684
577893226
953116086
120074759
669608183
399334291
53014424
925996043
818522072
914304948
185682078
185428783
996750933
129807428
563819094
148828326
310944576
30382043
658032031
467294881
587102020
389050678
731756884
559242428
645991938
162885122
246054706
738969868
262242119
38416
563135157
372714393
58417847
775884608
190626142
294101
904983032
439791
496013761
284155198
25391926
267376755
258137272
709572118
145702329
244799194
453760103
112711
936075094
238137306
571440898
292444565
135943826
331355778
23244590
780400505
778814139
601583447
2923831
977320681
809790852
714738917
3241
673495230
934823259
735644143
18146
258156604
316202694
326906064
675990388
694189190
681913324
460208726
59569662
359670998
78828638
2776
410305714
518125489
702192876
375733549
268697156
694723242
909038543
274030312
343831435
625021919
688668002
1
503625004
1
187548800
805499625
258729989
172063252
561023611
241590538
158827077
298348588
75607765
17851
942607005
186142
908608388
895474828
978777629
237590
859520781
133242207
932377550
952118547
782560532
9871
203779432
342448577
838553547
939146295
617843266
221661457
552936942
676017962
757420651
720932009
839099255
1
803987512
503938599
896985812
840422110
237051682
67543848
375839350
748489535
924665192
14029
960488731
960781896
294452603
692065251
799788140
8790531
747864021
957302303
845126639
425128808
381755997
9401309
766735947
674493913
481734440
9062792
161
194946572
742758998
221272956
130073929
36548573
523567890
371177041
94499689
478117669
10887472
25513660
26386537
801406126
2665776
710596713
956834321
1
768861633
796678828
511299406
811756079
780604239
873955186
373446439
292731383
913331557
936438519
862024904
265152983
362932624
649860357
352990251
453600868
369718418
860682439
576962410
438295828
668106967
981396763
604473625
821
760547714
85080846
822279679
341649899
775367163
526368343
969056779
797531526
795642960
34194852
1
245771285
160264830
99108196
924530603
409248930
390108289
509655241
516693656
280624911
642139465
291740443
146466840
404570381
482530963
819106069
760384
616494738
810107742
886847326
672762090
338543323
1
433928105
582184620
459437396
373152717
424397010
263498560
558116360
527063512
523955279
454807245
747220093
16212278
154713232
420006228
764100030
995015038
834210886
675670248
841849374
164182974
25295641
155146452
289639022
209229460
545734999
638181508
81302470
746951453
168
128511322
20822602
62292176
988142487
1
684502027
420835086
394980263
863222969
2780519
559220265
663124235
156846556
971292876
430978448
657611073
1036
8269291
429954054
965229300
353499317
792916395
591751875
237629049
94500936
794300912
313423139
524529447
503989508
915730209
970394199
183410218
243117064
1
807062445
42294891
926303787
777407180
695385310
768186963
935666109
649924863
628152822
862228814
209323733
743913286
906317675
360201820
143837715
36396
520127544
519381101
629809863
581153958
796314299
1218079
885959299
249804951
38002508
451107436
500548170
652075733
898791696
662844911
18664120
821660899
736221285
952486152
857710987
973884607
851002590
11724897
42417773
859617842
55944717
231610384
929608159
3917
969961083
165789747
978519670
450099393
8777657
409953824
112417358
680610566
844665450
492623976
863657100
477249937
44678845
568982952
55982095
961751130
644619178
362967474
583697611
508315597
94929176
159542249
377637202
372209569
775043994
270118043
136268522
258612620
129733191
150208618
309439557
715775503
76455150
339466188
104538235
675103812
308024807
542672818
337807751
830609456
762455442
830807989
743462817
975387365
375486041
788541833
881653919
364615875
651793005
933205062
29
402112578
149263781
939556494
810485099
381763363
344346880
705533217
863226786
265321036
779772441
798952661
684229890
405976649
336340859
292802399
845108821
815661757
412999382
711760342
602435387
502933122
962976811
412909372
6
909355462
35696762
767371713
669872809
440638020
382583325
960479123
4013
175843618
656433336
824704938
22416121
286994277
738864224
221653676
559540734
893001862
708306106
336245257
186507471
839140166
383491922
215430275
564234950
92563871
133623491
655325691
651418063
627710188
139952302
306267032
510085028
75700804
811825853
111066850
214305751
195616
484382284
504375396
390338153
243908278
30880860
23320848
985413547
393343349
417162193
624186138
302809774
216263755
79400697
282276482
61963808
1
373860087
156799662
635832869
141543794
182158619
598822667
756590429
801719182
546735705
291015012
770272085
993827123
736613054
712098776
461877931
545390797
457737878
24103
411306387
618640564
552843348
220286906
308881294
712502003
565465492
754659638
822011825
749235897
228604899
26976842
191917154
258619840
898908750
659821243
189
727136278
885225003
596176396
619471133
541698084
416779241
624458948
9416121
655556495
750670000
9066
859981372
878897848
232366248
712570347
280460183
16392694
894847282
798355016
564423535
1
524931657
585924278
501214080
881904858
330400600
492367967
956958791
491889051
871085064
482156314
314152922
920491
489139499
1541
135979322
799665247
693124156
576378295
46454121
963202067
882846885
274533144
316061669
313691778
357971903
776390022
651162681
598147909
108940619
849978706
661962961
986509672
473123430
540549266
57325246
959034742
127546411
366779742
684129631
714127908
739958317
633802477
896220163
501161076
565413681
799632348
606649623
177798788
399711145
958648065
305129327
833852632
757945294
297265298
944318517
166450595
667576374
396597377
748558027
62851093
72537569
79296599
829633415
682117117
132505177
530800063
776038343
569584210
316196844
774477817
290804377
112340650
736184214
663425206
811204238
816531
1
610946160
645391103
416223066
26574336
487751210
6372302
58504985
844508726
960536371
330452902
240050905
1
43301797
3742
638724319
660850622
122845605
678859792
104496265
887133646
60881081
550349291
11960560
251077
6672
464716891
523586508
635001969
795805826
269247211
412753528
262486859
363107477
469576953
283276952
178891472
704549415
575393047
690589918
189232648
33126689
924675233
549225858
192767066
321494372
48601308
921221028
455034101
219299306
341430593
770155874
185201964
229769739
925701294
241918906
472001635
626190218
271447682
175198019
77117833
762126526
958268940
769752389
685090211
584433946
510581571
370348796
1654
583530757
802714238
194198375
478521750
991241152
699633090
240108083
894375733
207268839
172928213
71503199
44165910
442175019
907604833
770945995
782116978
557966434
158751868
368228221
316508145
564692358
661872219
157561238
527143718
284568692
162111731
256502037
720875978
101320712
994054773
437088705
123700696
660984378
2241755
226395223
600418188
928119496
779120617
298792998
825295987
479959748
535544978
29981711
51962759
684409343
124405588
842318613
479910174
274543999
194634
499551718
126
816946033
641850265
960695923
197193216
28095165
101945107
535152136
15227
45938601
510051108
59855542
20589949
12310861
988638177
883885013
405769140
994855179
655287322
651613069
323077538
3161
997033678
189062314
324488169
711103975
647531152
755354490
3612
136367063
171337170
808003660
137306719
1
49
507166567
432804570
107453158
59568683
340167243
99272381
432674218
617811500
588251311
175710010
594063336
104628019
6126818
180082767
999043782
857228347
881805425
235211618
584704348
284752893
74621811
93743272
197519942
845898356
736091919
950885132
705836710
519043704
711808732
870787147
334433513
886938527
397043151
175793801
245786047
589437584
815173976
681849418
552627774
154370815
292925111
539796259
798789335
632572202
1
238669372
908024282
468998941
878121328
834785988
99663686
563928069
680006615
2400866
619830638
902430958
1547
531523416
626566354
746240429
599185860
39861052
914981903
978728646
374560211
188699180
389234812
780140662
774065426
771078046
32491329
192881486
323509831
959156339
399785927
588645799
1
885670198
846342679
317635167
30800934
165602237
4603278
481436427
872039621
54186993
863414582
130120610
302806837
845343172
940897564
832242765
117013094
253680308
838150075
513945831
176740887
267476521
651093232
774756230
245720528
742331668
967647654
773285334
293542598
1831
243040435
847485147
334612697
3497248
562957255
519392590
426791840
546619178
1153183
67972010
636025003
139844829
434264336
731122866
54700856
571644852
210855039
909569361
859958680
674027298
82407762
914656575
457392491
441923942
919309310
175723136
242056207
722748551
506155997
235232868
380360630
616870285
988925707
499142775
199259127
342369184
937896668
443577385
92635018
391967
292449515
361021543
642430360
620922988
508937
594860154
538365186
309062425
299763527
785845659
652290692
426878550
126320984
965686592
658893516
256825970
693819361
2445368
343973167
289251427
813893776
576433418
609660317
884507910
73587307
380813129
364343984
488937168
66303979
675721086
87686232
768657536
436589686
47255664
961106018
75994559
785395392
2406241
366664321
39353306
719218136
957898580
318789996
365374895
55467029
735125106
382605008
77908274
411507718
866713
914439121
973562103
845413072
489266779
34920491
263800767
1
304974761
558120971
973855133
782109632
542500000
823101323
869049506
380374128
154673087
595163846
38645952
787770998
550526938
278981243
228456451
279318736
899745323
985380361
5633503
727720692
310068080
213838992
8716958
46234098
846257761
88522734
969971317
573270926
23887311
891145744
1994665
491746198
307079051
728300028
303464161
355833394
602130836
116148548
337830435
872686206
203715949
236320752
413022719
698353530
563511854
497072683
415986307
2629
15912958
835541009
4962230
713610955
541007296
34219402
915557885
235072369
954117258
170879331
158342520
68125247
254102071
641546377
148049715
340663335
436
474310507
187075843
577069169
578178084
50706918
317587904
571205531
894342228
745468019
417874535
46465816
1897
557846779
215798922
516325728
142565557
988331113
778780417
60989765
996723460
841731504
368456303
248711356
911781701
584105326
557488213
566279163
342434
180381347
787110755
251642316
605447850
348819212
408409674
882662755
190194918
950747595
292436595
4279
459592614
768645532
901386154
564336864
209535624
513199400
457928408
945442014
589033457
517357040
1
906032750
947418054
841042957
604313861
792896145
546846623
938472628
133113900
564926822
189441793
270589698
868356236
449099898
927311750
830817519
985698134
575570666
758504299
163
110536585
166465568
76273199
26238099
724557142
389012952
202520919
980755997
193539117
188019557
875398446
289689962
705431105
128143007
203255500
833829901
662300350
469354019
12832721
411005528
844164925
550759211
622339944
678227104
688220565
947026872
586211670
379113970
410452233
334951748
736016911
350795729
915987318
356430727
194116308
942538959
842889948
365657680
952919562
908843163
298752070
442787158
668272660
824457073
254969743
643630372
95072833
261376441
483180924
421949182
624817569
145518251
423924166
878266421
25324109
416869442
851826227
107255012
338939629
797356371
883638948
146645269
878048362
175166790
483324036
361219744
548348954
314868831
231716460
940237049
936185687
219772123
154417431
945707511
901119534
134667263
826748399
490967904
738229348
645377992
918558927
682726755
47386989
61191132
116270538
319677117
599887104
937040122
247615187
988884891
457709536
912724269
76699651
176050076
867619957
504919031
368308379
42300458
562113488
339962205
578317892
197757264
28977684
746446607
256030909
885677
503653415
142586949
941443331
952548155
114918855
575544153
7639520
740768494
655353554
25332907
236902473
470666339
483930741
363104939
415756350
790606688
862609793
747871329
608030197
594330587
23823792
469987007
678252175
436043076
808351548
596244687
614773146
949625957
431826740
6131177
655282157
307705731
552606077
35988127
23166211
702274564
753185223
337463040
640355177
207573832
788362519
635679231
201649495
199977848
190347219
10675876
316694006
427201822
347933153
338310803
181861929
855795092
225
464073216
57791470
131582359
36064466
727110730
217595840
1
332507667
134904340
230853565
493599382
961148123
350256990
635824113
32650422
298399969
989211035
177211650
262855385
19289491
815083
690377922
673840061
912148261
20561087
716947383
469102730
685507266
303539771
362947106
298674050
312341050
920085186
33599399
57771089
938624731
663609070
170000170
505582845
635501197
598318568
1
450869963
920979524
412610543
441575415
1
9592
764455282
830274809
315852119
296667080
992317072
165274901
426206814
922561736
37597477
205034459
623944176
524423830
694795304
786992568
1
666040222
950501219
340142582
736445103
15528079
444211189
168458899
231017433
263871527
531460422
138639367
557601949
124176082
622453856
730907368
894630111
179879347
487081441
972255058
849809537
982289904
162473905
893221931
904803363
29712784
383026844
603676210
403770544
184880868
772393936
659130526
144796495
169720064
457894096
530489005
1
907417767
146
884601045
967054556
182570507
188305823
487011354
884213528
587638031
483190006
873027355
810297450
700851711
395605175
738851752
767954636
460909640
903150552
346007576
14472271
94751135
779182089
55957391
810618082
446323573
402858572
581
967093425
152835394
695492530
5998876
916541671
495525215
109776768
85600518
819390770
98199586
286442829
201478464
223609284
471317231
734992629
543670183
313440629
41235272
793184444
67908497
620297731
77531359
941961215
172620426
147301599
521242291
761120076
145326636
812846956
333438390
720982571
764886278
396378168
680848833
98457787
623453723
861951810
841470148
569921045
535089923
326847981
701271298
719713894
457642702
8912837
254642223
820546499
130601162
235418495
607822300
331852689
205983427
204000540
248371339
385040858
980601626
486380380
985591132
354335157
901822973
489190997
245386416
138983803
5911763
827724321
937307541
381655725
788532151
554136000
307056003
902650661
246103744
83595512
19268673
686788478
1
438981985
412354853
288689950
44960655
136785410
418325210
657660670
264481573
427685166
261500301
234925042
633584829
390514894
717116700
830566641
537934834
5152
586155114
909745573
16701490
294157427
901245622
484431487
584176993
780128021
285573330
381882198
50930374
369676621
437014777
75170691
943920493
205284117
184635943
484340883
272107468
73322697
218814304
993647481
885509271
7680506
282840426
188313745
937790622
299724329
427025481
438103048
687495116
789998623
372187049
787731966
508192567
870962829
496955746
386469004
116043331
150223037
602731120
718534472
848739279
791487274
310353269
249527181
746251039
604141641
133470184
757596782
767065723
1
571701144
348642549
392972660
6556
612774123
589030676
29458
846203098
75988424
138213026
107061615
457369968
129598988
822162130
257490330
811000032
160845803
65298343
428235753
235373732
554192864
700664976
640021754
307799192
353141389
528390275
593130495
545681118
616342831
681888046
228914908
435918343
862136367
176535654
705558985
808001925
12323649
796958678
810946478
355862768
870144682
881546218
361377418
350619958
721648903
827118093
736576
39406805
29349400
567453054
604082409
586100815
748530586
838467503
830337471
580914293
718466079
243125038
15226
937161559
55440224
982937892
173911786
999618598
196342197
353376625
914094594
231549579
840091745
1
668287586
347920116
24371271
4466
256674331
784926721
6919669
829463408
124147776
550329449
13913189
672247462
849024609
757893363
348312842
905216599
17858922
885082317
730156231
422664305
529109955
598736777
812585090
85731076
724020776
953880667
945283267
158254684
30086
566573441
314978333
197937251
980315107
221306500
11517
224080136
739557387
225408112
966633141
615779980
869307684
132898863
364303381
526782377
241765555
564038607
14900943
859373044
415399555
549516026
25409502
195080783
76051465
52880368
377950897
963665508
1
477458968
628621628
320995719
418329100
157369184
617715471
95773339
683563791
328738155
416221085
614646208
535689122
959171815
262480761
309912564
193392148
112083136
329442669
784087020
224312185
797142743
159564427
900801040
684488111
453640387
846449158
265975756
871144711
236287505
962897423
809052855
854932316
560587688
770498680
513668944
567036868
923065041
428096112
298672386
578368437
560699218
656134540
351259394
29265010
513017108
764410287
762029708
878191374
283553161
965968304
115589358
658219021
167069697
903393084
17978389
838381178
180517555
277413070
621734728
378959438
942297600
821723729
344915647
623662068
931049444
409130464
911225206
704864553
633666966
1808521
114920102
50489671
232073800
578113983
465194739
388433782
1
22565872
986437657
525442457
251212802
284882462
555790144
887074560
397845152
881198767
21959176
201792945
444496511
662510874
753437344
661058075
585815883
232568818
111143027
817014928
874212667
804401174
753258763
189783089
16487344
4072522
283969239
277050235
801837546
753787530
92094
591175571
914291610
819838991
830315207
101816025
791469113
861207361
275481811
296661529
776233827
705200273
167182351
187
484873422
497
123944018
70758204
533265483
907393268
903783362
322062994
334919102
550613300
319042553
677651063
393884629
666742540
199224976
605350156
142490305
65153793
8157227
904651958
216415024
658611679
467980369
435082879
226426605
229154412
686538271
176
664842198
319410020
892529575
640488610
688076296
501236842
159438448
329821270
574235598
86602189
406776257
599022343
14
678336492
71659554
373618446
494249565
466752498
550260576
247317166
562126537
958639267
770592113
25917472
221508912
383562968
70
316462873
839555663
355739406
25304408
656547250
459941436
352074078
729171967
241876545
948084334
883471450
19346634
843171256
750429149
698731926
208470678
727788157
850888518
483871880
898732482
243181999
278104406
594110259
257978897
301840053
281214147
196359964
575558644
323366241
375066333
959581105
636843630
309976137
90172179
186723607
845857034
6354239
357669042
419573382
246213096
1
850178133
257516280
300701300
723729930
69254875
691518747
134037300
507968222
203048240
2072862
933048675
977984466
286196258
1
430578915
320314782
216925854
202580780
949241516
670624698
926356529
745455787
228181488
221748676
971586710
580616834
632792876
590585570
816815350
215692259
106458569
211850756
11176
72445636
696706132
390968204
251877043
434664763
400550708
433292597
849940026
806488661
28355321
40844080
981785321
498635846
198370714
924986484
760997154
174607474
450443500
66625343
845214441
139631362
428784584
16012199
541647972
453336759
527627349
96136325
590272948
520263363
191113537
343396669
934299186
233114434
406324829
880327913
532556454
444759347
766678921
257139362
567831976
664085800
118451102
93495125
921097907
558139213
923013930
936059232
315434309
269203867
863369628
534081447
856629010
868409238
920626435
905213477
15656802
2080429
295851173
539394274
48930390
13135404
106195828
869853903
138085894
349658535
923788067
1
292368327
621394898
12091171
605686245
862118487
714654405
871583994
544058278
328913512
792673533
176206463
11011
273825425
792068357
642735199
827269974
220739802
434879644
910935242
470494648
10297
107832046
271183813
106793694
885325421
482113557
189573091
416896038
210503932
649034865
4447422
415800541
94868104
894968372
269436717
940841662
97905286
828466763
449722678
732805745
70699532
896654594
711501553
637344584
54644543
15851054
362531547
459771687
618272350
16
94947498
704541252
225736692
4852
26912895
738659510
926190752
210828759
586956408
64538210
268243821
772144068
889879947
88311856
981550720
432142750
461721165
822375202
162498246
161389529
178342455
582618843
2847447
362085656
594588876
230514463
728733930
572520277
521923819
864694872
365947347
126477181
510449825
174116799
904801954
684356235
39204
523423323
245917491
580607521
712980489
822299071
784533262
104460195
544482508
44238088
970047705
8670230
395598617
821546865
965499086
971478253
10270924
37991463
846849463
294885108
90940468
8281
427961343
514183567
927715110
510284029
47846940
831882577
687465112
860026051
978929949
440378976
807029610
328421060
214504533
838123656
815173980
213139454
229786600
326
498386160
622521877
284970009
440322696
218277831
29661181
595858380
947070059
70590300
40448101
679395853
647407862
660399681
493701613
69661278
597496
788266415
397796557
867179742
127606676
777074915
693867485
603324962
354382470
215965473
347863312
271032472
121863949
645768675
414992608
199948606
473976706
198801177
865009048
180767303
595258483
441678331
747426829
19420411
807345678
1130500
36651979
62382784
173168989
145426083
284069787
921295902
959068025
419124753
821227364
3778172
163556776
20304636
794111683
66492380
578476973
273159190
749321716
310039527
1
325305519
726260808
936722140
365729755
438711979
636146324
351377554
620324823
906214341
869995066
463206209
511116149
517620630
625166279
10441
237143343
1
868695391
162028426
4035577
137121910
69838315
58846286
73026026
942452730
606384162
511826839
350643317
964564344
147267626
590698129
813780081
756983141
1
394432844
275478525
203581831
845716762
527046629
678843217
522100912
162741745
380142733
960597381
29426073
56496979
224133529
999250160
746848347
730586819
167721644
23409
699687875
158808439
388658348
334958549
721198588
428026871
568703375
584541252
413441552
62036483
7
399658230
289464192
311422721
12338056
973036335
883179820
639471912
215494323
200536516
590662869
990586907
313412924
134613650
555804046
934962115
670918967
332639122
13241614
509910805
335167260
890269525
443199910
368236577
77312284
1925
335263445
223328300
380517833
11764688
34948819
11936
793534067
776447810
611576566
776484069
572482172
54212717
121
876488572
453855025
124231
289273002
34540159
933438678
596518717
135445281
733238152
200
998963141
719589941
22436251
890375541
58895963
431916571
462472293
897047856
655382620
918127799
198648836
302873066
801876936
659351038
642579129
122631474
861624303
614693704
905942625
272586451
711928057
296550490
4657
467547435
21280337
580708411
958656862
500331101
365350337
286949037
999543363
833159112
251578991
165106515
81857345
1406272
652750873
141152384
399724540
791461272
110717275
68469088
35149650
20101
349024714
352693368
942809934
275968379
922142480
650619601
271475806
241490452
413424180
736134924
607948065
599504509
455317060
531509102
59866322
518220988
218374391
732491106
378543548
273862188
884577682
418662428
218785893
857191115
500379035
706876872
255140913
796742234
558509341
985423062
450687776
236204262
123327816
729390039
640947235
867911991
460828669
217921542
848940537
505912
916684911
269674393
894668380
200192930
35200215
309923757
516062905
833786843
698769264
3513426
60350278
556785519
143878335
203478566
150107812
2062260
817658317
491062937
816754531
390197135
830686914
924658348
851616208
217462888
737845619
404890246
1
268548292
942828
188915452
16086316
401686935
353124801
628684621
958986863
989728129
940827247
529100436
833723274
850825488
387831408
367499823
525586625
210589186
290805942
457005393
298136066
452556836
850234989
295637764
832617241
334687136
1
844304918
443795048
383614648
432439278
645359817
371427774
930632407
211009392
42677640
39866254
426737894
441523668
917799044
202648497
106968120
910245216
156344952
477029995
555853566
145015154
882142561
509839030
511047731
182074625
240348976
612712527
688016026
570353888
550602687
587198558
85782578
8233507
196568167
396112766
392918583
6001959
92581134
847743306
766603620
962869208
332342717
321246518
811765398
874179461
172435208
958082205
236397943
116661805
925048432
936840482
979072830
276962092
530892294
619809129
45229186
539266764
744005676
663590928
368855543
855604649
807766448
206939932
984133563
3345058
623233200
750893432
988030257
446842761
698865851
449598956
774246588
678009684
71612920
102734786
570935100
872602506
782356181
450309847
466399508
2229466
190253323
82280506
679496925
963514830
10586
55627826
508974012
487333384
146154561
780589468
322912172
590559290
493233342
540640000
137319102
457973236
429457950
158630525
471713386
154434789
790073816
218586916
973808040
176294029
718308947
446269977
456723
610208951
560999046
68299612
891651157
31131987
957244737
1
549090157
59957652
216578954
415982019
442687035
587408678
703585341
539831432
59817253
545503426
787232965
617211518
115850613
586544331
197869064
108200775
1
795095871
458939524
967010582
208776392
949556404
990252725
121229406
187651900
866688350
134103609
44321028
393933806
841027998
860519790
799613257
532981340
453994526
283225904
62542743
367332589
68065320
580684878
111412495
506989499
124074652
818912733
450970476
4175259
952956906
723067051
650223766
949502763
902058415
381219188
613876192
67039398
997248039
122710846
744266421
5625041
41238938
94856164
351101167
713637139
102330003
855663003
647871582
83345902
306835808
769965106
153670513
663856424
997589635
6679093
9085891
484
757301833
827417118
998966895
322290466
664500885
72458870
683207649
812308063
137889364
518944832
997772409
2856
263959058
829443984
36313093
761158290
448625266
58277
502552439
692154319
701165215
434006155
509862646
662196120
802715478
149318176
67693451
116534776
169115806
742155310
574638441
573206763
282756027
351046718
520862327
624432558
745250706
310236190
490430674
938725032
20
790303764
917081982
21061602
120
185863335
113698364
156363560
886818538
699517141
1
760913550
234364879
717102313
3712457
548926637
782938719
74179433
902932593
927896521
373495322
880732991
23108983
337437060
133975401
660595007
365937223
862012482
641336263
551942264
804655129
31020199
68423819
165198775
416487281
955960591
851852965
825446353
954427818
165440943
855451059
719778535
486547397
408850256
456413518
353728569
429484573
36056491
445839661
786148367
201320461
427505227
73565595
678559982
524069589
717915193
2400632
879696003
930333749
550291288
309621643
3181
432055567
643296593
1188679
678409975
246821490
1
602568447
473769051
993703338
273277036
335205718
639778733
939473077
135450294
810444439
203332123
896019664
241620476
555494333
944354003
361208064
131241909
351011331
366804628
466049212
764736745
298925576
39757441
446981994
627635067
92518253
34797093
894431143
515517301
670641164
682479707
700480866
1233584
222836583
447472423
174802895
326045644
456880487
651153827
325694599
441476108
386234860
420629471
221547399
214072121
261200470
656084394
758815943
382742208
202087814
663733278
632226211
208815111
975596997
325357932
310332431
52097267
257348314
778301369
58698696
621764871
820433671
505982197
82640855
461179164
318129055
274992232
393703932
827386593
682336964
10353852
512014791
753367032
56371470
670061737
196616560
108817451
967242512
977153690
673969536
309066433
756894246
988890463
646219283
661448784
386558438
792619246
538837255
283644748
660098353
31684
330711192
685397612
316208200
34159240
126768993
350069026
513724796
232246297
717905592
37217252
342995502
361
395062084
439555097
646034208
326899491
148905790
915076139
7963384
974992250
976842180
764507700
53053522
912936178
608990630
186166
595898096
559002921
109877279
404628555
535187460
1
536270633
10016752
868038083
823338808
165
639451227
875628500
717490354
1486
1
65534817
530772521
245655722
387559857
615913878
28723383
858580495
333363084
247364525
305740594
450305483
488310384
284661869
612777991
518047107
854189710
387874905
940661208
295359199
56895760
3641575
398673046
772205990
392116763
524305247
255609295
690174854
833298539
459540135
19932880
179215726
855535443
3187824
313038499
714331977
964218597
54954157
585675315
127549152
812088386
149193820
144514624
73329314
14981195
86555682
931594945
619118421
689936683
279925408
575061096
187343401
125391536
436825477
434659384
556379262
3784858
939314351
958021240
4102372
205243559
494527954
622151022
281446187
238311859
207813847
194079857
918750270
807502818
288599753
724695950
668831646
564742741
66910273
3483356
712044412
131354588
143201613
413990754
799999279
457655927
4973047
296043228
184244673
368880585
308914
303018649
766531779
554116345
260782556
936736685
769394933
24253776
423966999
387244184
885443902
472087900
51325352
621390469
235834476
818721273
320132498
873678920
649378590
35987098
964822383
843823181
904672032
151339558
595990996
667844534
903165889
685817443
192529000
109856370
365999509
980730175
439073007
635173610
726176673
878946482
398783667
123540613
380683378
294708132
996094779
431093353
346641398
370994297
965234977
459613746
386096048
488460622
868538408
353530998
998119032
868302583
660751466
84704625
176997189
116837865
557646824
230796573
155641082
198223936
793654281
438813912
724247921
744510892
929231231
39925174
79724833
178337756
324666301
23731768
748713004
550440252
534463645
624865470
565777550
2439483
259194372
32786014
518502576
412786561
483118784
997539034
450091323
206246735
539918668
182
187681842
39717854
719695136
307925208
702211584
445201741
33128700
872577561
809479146
459934899
253686992
472344965
10732
135129598
526285643
606608242
767720077
14644540
483031166
648253089
728992572
469743591
217113301
714041721
19212212
400091995
637357522
348764551
13743317
455074267
842273349
487603957
32032606
32346198
399879400
573718461
654711754
319862832
674536999
27966
212659936
357653043
500901447
513207105
969560234
730573098
85820185
894709122
755325186
853340887
133016751
1505428
947743585
4785484
450094174
843572818
8281578
752425826
247150175
746389322
529
783668593
719104113
483615036
235173581
953993388
2377673
943691555
746520412
954223507
131169168
829601787
429021667
1602413
1
232503492
619111172
732252138
675516991
279060884
1752221
56169453
461597616
282815969
884494712
703156866
109178540
763576444
553405860
7947538
668605264
706102642
964677390
718776347
760081731
747397762
171220619
462134245
397630459
863857284
5782955
771867468
844734452
222907741
970081072
314497580
353219231
665971041
871063804
564803448
567757416
629601689
535591823
379653769
172730688
701594467
849426468
965163451
528006700
98526792
105073774
92288
368006674
914715741
42053589
171540572
130662695
292013370
953582743
437278829
321007187
792710360
3417
357048381
597357196
1
143303151
378032657
740844777
393513274
603723363
98909879
460252984
228505761
66611425
455677677
264966356
432813971
167
221511125
996121589
117114663
448864861
235341354
135630200
191
459714917
31270086
163860031
255754469
525711969
472418354
666521087
962133142
865302910
934736650
17523187
72018988
927805761
239227056
730406756
563376201
103505301
710065799
795594743
370086683
250266681
52379487
418695159
642727590
208126523
8647
426517386
17958654
217621232
46705290
791160435
449937783
979002127
210765931
715115134
204089687
316501485
536486117
245674219
77708220
850816012
725909643
452498844
328744764
677487775
585870345
900987989
57850749
201298602
238010801
551139192
431445118
955940724
56675094
646173811
942163574
510344098
656809433
334946806
428793428
180241382
325523170
256354592
342789303
818000489
576184878
485922820
967026605
942460900
871994045
609988733
187974762
887039950
255812197
25
108140774
337451277
910396336
8372
908081188
199519372
268891479
411142178
907008641
970234865
694506197
333095423
415347263
484435837
797400391
676043779
213539435
991236537
235394097
391738011
257588418
214977754
127261345
759969961
123664673
212794714
792013884
706496927
215570480
12277401
771303096
853579111
3544
308419214
302749720
939043935
51787418
401977989
802617185
640514932
422738478
741390460
160850105
44552774
785525454
727056458
486916430
734091091
262804351
880745835
243274763
483851895
933855346
853958770
399522330
189871009
541805491
680784977
448073737
128248
879338798
512476312
421595006
643285225
69863235
764609380
519131667
925060848
138568060
38535947
398346590
522411659
290592568
509765234
941771067
68930449
915129799
384773030
260119985
555993059
489494506
776311967
172556585
29790692
669574576
380631775
271752854
553900674
724362276
21
4006
445955027
544214326
886369233
316733212
709723983
516200142
938819621
774737199
902716670
1456812
575726030
910143817
510455849
316119127
155206902
18292940
794306627
165910703
501129317
856261062
753562834
289912882
682913013
468592084
259440018
469994604
255201058
989719047
21120105
789999369
573366545
533539717
838072229
534737616
42819576
162483320
912877931
816901352
930381063
707244270
450223066
688868333
284978095
156729114
952300396
870718087
865664333
659788692
842890882
165721428
129104559
28935917
371572735
56362145
850596981
965446706
3730548
136804171
290592673
765598620
687512038
555822046
584586361
143266335
73883024
14665
120012883
684163422
80545251
65397443
754459188
891480774
359414279
283186249
398734
825351121
55791485
6198466
629199079
269393560
600033394
465134010
585318380
77067037
532873473
653103323
932756645
163532733
935672501
717965938
3329264
761825878
634896367
339051111
219366069
521817820
5338675
945054603
148828984
420341523
434876686
419769994
736710638
676012447
662247748
852601497
69804936
485081650
474892057
779587330
42603949
74771624
965891121
877081088
62136166
108964897
498739148
769468431
616842166
845834541
267659614
455069674
763377671
778523990
916909757
309286017
699728277
248436941
166902471
875800396
636315389
924606489
822610431
808330182
780206620
994064271
998640584
986324780
868115152
539306235
129429998
21332266
100055215
777366190
5038866
862883436
300772444
86667543
850452764
542656301
285677228
764395515
374017932
904
397851630
79139369
149587819
388443787
171051766
179700169
708843753
331109633
746708337
36357274
290241267
852052623
844391044
194
493608480
16974859
755467618
997320627
778792436
159343486
325339969
555781782
977568670
556034014
312620798
680231197
78140253
10154
149710022
581661877
748763921
650297640
399546148
567116472
378796287
1236730
977614009
881295175
384661513
644656843
17767
912709400
120174536
422103486
206015630
487894095
625
166552674
659721031
399689771
332021946
64597515
282632043
57412615
706505730
613705785
838828045
448531400
70009690
674402911
69354515
177535431
969267674
393317942
727441036
532089308
516258442
316409321
804211976
112284228
84529983
271179733
156781538
150757982
492460772
807830801
226977498
722737
120083805
691792888
174157963
242574128
411857728
594587497
501111067
480444542
42012302
959314639
154300965
505360570
899357065
689834667
438945592
181042362
632410045
8447440
945637565
649965462
395201294
299525475
119168154
580543454
848632882
59224205
728692607
260849381
636072496
39492608
474524674
751731962
900551057
64074308
532483719
116870970
382649146
749437722
312274252
393624142
36481
660407071
302311415
822398276
538470627
869240559
1480512
927347991
347949637
522789380
915034066
715412225
25
29852650
293296167
679955114
944918570
2803658
428802213
502113383
875921088
154787712
702940798
62739807
66328289
337653418
626075175
667842704
17009833
579043562
458230121
386258648
267737028
14527797
522533659
899336379
635530441
472509206
904424146
463780338
304773106
432017562
488003449
812394812
334877359
31161
730358306
897073148
39590418
314226524
923531555
489043929
567260409
434780719
659207689
543656741
942266839
915334436
914532692
966243406
669570619
279395365
281008522
446931389
185561955
776583573
548833773
751024479
1
433264191
177888655
814582060
983410347
581683973
661000623
987021592
937945910
661791116
514484256
588208838
597067774
192
388184034
580642289
839807965
5194497
943839522
110470818
105304130
651507402
227231154
103832704
6216816
895616225
515132435
723824918
383090748
532280676
351563343
483416000
95045448
252013238
436180139
871489680
799296153
644727542
157618087
385475255
873919204
282139090
941839466
791112179
695520912
950328718
636677243
253065990
204139323
149162718
376224771
514211191
253283768
327095112
460078577
409078792
101721519
684620294
193964367
132261934
310473780
165229254
590182521
400490172
567682419
676052254
638503731
785817934
867019888
204521235
747047333
203059755
4010331
538860460
912435884
985029897
317807243
549427682
197047255
162602485
475186387
365744805
564308988
851627664
514435678
858060278
320073708
127740152
953196128
407692689
221375
269700881
376040415
459887896
773017969
429638889
927100614
910638809
573346928
657165611
827669834
496599824
975117642
154472099
470685821
910833954
317713693
582062320
560254650
1691820
14527954
889053835
499043021
426889588
26306764
824331474
183425197
15996143
405305927
381610919
651051074
202236885
118897680
928121257
842125654
84158666
684826245
32401703
426640941
676884635
995682470
592717899
631385733
613770419
51601317
99912493
914159013
250859857
458558803
994205984
319392928
417191925
231304609
41482826
943327826
262809467
832527103
87118543
652425265
554245676
743477544
611470549
995283590
872973799
285169961
961660320
470572013
53725345
245106192
527262415
143582437
185615709
525222837
847297126
100
165085470
59226453
894067684
464711807
3093613
10658386
672659856
333837440
82326808
564515115
641376599
341523703
217039199
608623805
6754987
950331914
291989327
491270457
694313392
234140901
720601131
338371267
413535052
235765270
601043159
872408456
384927854
615067258
339271849
63901421
450713363
295035432
185010319
4750
560294080
483736990
723397576
835147067
96217691
395982920
739841478
91053599
561227411
264844989
70545591
991748233
170836670
872065890
934864563
15268816
137511871
71071
140613836
923059215
301379593
244523294
800325717
105378807
781288436
766746283
413872060
100523153
542052397
619140984
318836234
599253924
3276559
252522217
176671437
998035182
2602969
102572948
217433657
76714
18075513
349891916
896963608
458288469
16
789219451
998413170
838761784
149925170
992315468
887031444
795509609
9526935
362654451
906578754
266192792
628693789
829521977
486147547
735361886
675628629
109729112
1
960917073
1
312047075
72946967
721656115
313558237
29929
710141848
232611455
579501443
819054705
555544543
94315038
210660694
703126644
422628637
429453980
913257849
865344862
55283940
601025746
447268578
12697992
211
889130391
33945164
258654684
493329698
759555962
87805332
151754979
138318568
898989515
176822665
528171722
837657421
693386175
838846617
7256184
453511594
378813310
420397139
262639281
555575038
58048395
626372458
667113268
643506298
366069136
59558255
726613615
715819307
733519031
836243818
544470157
73501535
196980910
61505454
868825507
377946641
115146406
821836909
37788632
902058587
60246784
650420504
921822811
303169134
750667677
102155879
244319922
7056
129614795
484473439
313360621
2486
32619987
402466635
526985073
246965732
953515237
786034809
515083859
304140057
490343925
774998239
458660332
299725696
889653485
974948517
24675260
200047209
355986339
359422306
656225604
523852386
207044112
641125152
3744134
977823567
355397265
341817286
529737696
904210107
791746990
673933406
75533984
587035032
952289798
886995901
135059970
973953148
986826301
145581464
217804985
195691496
7371041
934742536
931802562
459064559
680153242
104379354
398722249
800482818
180893844
246039680
16675
367295454
882840884
85645328
839195447
26821644
9241749
836112439
736264355
608512913
577261876
173981446
70196335
686054786
366191552
295
350286540
142102
197719330
237195525
482822792
527470101
307364110
364283424
30219537
5254
513871336
429814076
512805433
309480033
289668638
389058744
500508275
171244007
524406421
193
119562027
279586865
411525612
825191718
657442807
677958941
202457507
279214080
93748799
13336077
522084990
20045383
98425866
811756419
89598670
36864
378216360
907068179
710549248
1
59642651
852586562
125471368
185158195
845291756
752882838
721189091
98778296
852531748
354766230
635339601
929990693
472861523
635341501
532248722
490779888
578839328
264700319
734161143
980808854
34991335
288350346
164132
897394751
715340954
2236414
532649165
224872535
985274852
270423487
391929419
978772645
648597604
988424491
339775084
516520570
516774723
938527502
388033938
255757214
234961163
583093511
23266334
662908321
931974478
541364257
246231705
507233027
18496
602534369
21201211
479967604
274799443
415883207
177032446
612988740
687892170
557106734
455903077
373354119
729946484
229607729
674276628
742933130
25687376
833060575
225422362
721399858
166185518
646714296
185100300
627849772
381634031
59832757
859323300
34197865
607640159
128291887
714357791
771853730
551159637
606124046
608235472
774559207
643356951
494197084
164212701
81733768
942200332
493155202
736960600
464031764
858777666
532202289
920353860
239071402
42542212
720644515
964636223
550534482
945531293
514125095
555071911
921255016
239210326
463051056
879363082
28517864
150752065
647424997
990877853
271354516
228761064
320332677
783356819
330961896
2341975
684746818
575827039
188362394
642460453
940856030
812185658
294848051
69533730
91441011
33011647
859661284
706601090
957229384
611469391
12013779
10913690
631
436764813
978365337
92055082
204494964
38202132
291302116
548571427
7540591
474580416
868081354
773844256
952074045
334681435
337715504
926262705
917175719
647456839
706352592
70102063
124421412
528975783
804886693
950518858
795634480
447710218
518643938
142048357
560333413
143480305
103183108
913908179
421675401
901494101
259093972
43323991
954061167
314896679
477528427
300801315
792133492
636814297
858727410
103449555
136141121
394804730
94972945
150134229
988934332
9865943
113202207
44375144
789341191
230609359
374120778
384866740
527242383
1
691989451
866477009
726493813
687902384
546168161
458874779
400392665
271333603
574759194
750284968
668042226
832609808
165247786
715627375
813297630
7428868
230294110
491152016
197250874
393339475
668955542
532902660
116913890
204717188
27604719
757502917
825612896
2486
821646116
190131101
735178567
358904963
573861860
702629463
640738613
609971848
940638175
930224750
612473535
52956417
311753095
776234438
23141659
251189546
517328219
299151228
30583464
763328182
50
959701756
704084806
408947712
312235336
254173100
980545884
695247626
186409780
25106172
707581463
589100458
860813613
704082244
436129656
405569127
858349234
55321093
462051072
503195664
720889048
543443875
833029368
653578178
191038880
490067959
743281037
814828441
104773689
584892889
2810011
747910679
201347042
663552569
60570682
881423630
526883696
573190882
301798366
804450693
411528181
824931458
9689224
385492309
490454636
626727498
235830296
13531
491860642
188981133
669236364
268803518
526712025
552281188
259218021
86099293
81607617
344578769
992052480
484693005
49926206
821618053
761825300
1
821263606
608946842
1
692769686
408998891
141525169
122024203
836812948
642002646
511756124
913130267
586065075
680444742
283477562
37803301
283728721
581442100
223505540
128114958
105602813
571167052
999886004
493056369
599240301
802160926
695645704
42970057
390508947
95251169
409329168
597361892
501206544
381261969
113321433
300640576
104381754
456132970
424340696
96608625
700273516
735599275
1
179215184
320918135
725490037
3345418
6854660
301872149
742302951
152429645
701813996
762704878
713598027
243174642
386787206
537933839
637687301
868435648
711438527
286100424
36471610
29618
661199768
688026055
656923272
966782351
846870434
865022089
581658259
463915397
30690308
659479695
268856202
965117931
928685814
74600025
334113291
115576549
50280681
792404304
1
544083876
789741269
925832313
483463266
40839238
973934164
245241006
241480218
750233766
808238901
110504885
959533488
323115361
28561
59645107
351396527
23286623
142394377
143770908
913895369
501173017
462576208
497514843
87702160
152129229
803446892
135876427
838054336
114218111
140765391
691816982
973104999
430146184
328622818
910088516
110176081
116048995
275629593
674428742
38761263
845590631
682324736
105307233
353207252
88781225
849581427
524854803
2399397
563152467
540306747
875148361
26579078
419469116
817314213
164551464
73753498
996670624
896120947
927489736
946319292
430710193
743603061
770489072
317095617
15022
362609080
168810619
667692835
969079469
749017856
678219634
829657930
299531533
317412281
755874681
72879890
56906478
353782511
962479978
689000128
754625488
642360080
169691405
889640063
719489286
103826312
561467790
733118270
884899282
330916774
48070
633394000
646073084
61397466
396088253
706168354
46922257
9799070
135000926
7876
593848434
181137853
938584142
195780902
204631190
157272382
570723464
299319542
460979263
934545380
724835374
432301524
230732242
762754103
125751330
324045534
303497742
839718140
600134550
339076401
684553474
641991769
607790923
14163172
829848869
264353310
377521940
269684723
187306662
677550586
875239742
152646
461058737
573230673
948850488
357653589
815664186
84074518
329329
123490355
722696829
364317464
403161823
841192393
236580882
198778848
338044316
655059749
359263852
147622780
442509080
632842008
390647355
416804485
766260720
312342752
244711804
737948706
741262690
282749180
946506160
155748631
82469790
330663596
325690863
322909341
113920901
512693303
64347623
278339931
781370149
778009931
727352484
227915001
236002770
4900
20993110
106756501
305757302
497907917
12562
618707183
427456863
935619249
265861811
27224029
740335245
432377932
53454277
795995312
429462671
752976505
328332192
118698201
49238447
357018673
295490827
865762935
135555342
796103384
716720226
28008551
342639643
839099467
77235086
503857027
682544513
411442109
306637485
514225370
76754951
644287909
657710539
328033466
300154468
94872959
161261902
487442442
775261350
151432681
961980412
707385334
523302052
806499745
931431713
726815032
922987904
346216157
118862622
573265181
74243047
616629188
572051758
92013176
46366676
966991061
769251156
115050054
996200756
473738576
67393214
313314596
358211582
695475206
751721766
356748098
497516694
790324733
983798840
825253038
483549647
79515188
192221744
345046166
236583459
764433188
217406115
837709232
298313270
583871589
581018925
313975059
738689872
201807515
64096109
892046913
154370562
396496
578333620
419812619
68705151
893515248
998983630
172312075
652415470
754300152
843557428
119603024
7351371
573593579
993104291
2613016
222206092
920593230
206503911
634452050
1
27256668
564802633
128923007
832797950
602488442
1273991
673285502
525360074
37737978
873786780
639405357
556326360
900066566
233843207
949040608
145700909
238343733
129290186
278707
747873857
162145104
364547814
579130452
29241
344227348
682258942
700299871
230402052
93831110
993382431
710912341
762329436
678800941
443819456
198272932
248997409
614312579
107082908
678525518
289056471
585261149
608781857
43179117
44245603
513817157
926095030
78730283
673805930
760359436
57506834
706533616
48369430
122139769
996631833
972246278
483505755
191
593456160
339445385
293904236
407946098
383428582
942666087
678922515
272875
826331904
634112543
622854619
505999253
234730054
209367683
403778804
837676166
228521779
149910214
360400134
548209225
359124682
688911818
401214018
374833101
196
67351551
912247398
295499198
930101992
763090190
518252437
414875089
293562190
28377732
9999788
870208864
93894472
559085053
885722946
873263158
448551783
229163936
719209740
351203085
157614286
839689597
187145340
393124435
81843656
2222409
984712110
904549379
551301584
90123105
353393121
123895803
668013506
529955479
385572611
216254813
365787097
613481361
920709635
708034144
1
423370695
842868935
311572355
324578353
644734379
446281468
200560590
985264199
787736049
559781017
291855901
680375158
444328483
622770271
242738005
664663750
170013240
119776570
279503312
737230046
949373090
354523181
744647167
97570247
38304014
596
430553595
871496913
25041228
19201191
289754676
681824762
436048502
194378705
211892733
12721
872133129
477317967
315568944
236674685
949283425
805140888
816031407
349196174
638004842
420550724
1
498386321
496968124
30063058
521592796
396313159
241960416
870639685
1
732720990
333517589
209379416
693046868
490614158
1796286
304018947
485855281
1
239680912
53406155
880410932
462463046
525157212
366779778
249831110
65636438
392372246
132598746
187712939
687091625
447743553
1090916
1
242835429
581989478
819515494
177460835
39601
627611349
963625900
322087407
525462444
195390958
748525422
741407054
397606243
411744723
51854765
241753571
872879776
69220792
702112671
299824309
855420501
178716579
598690833
218555511
188905202
185
479509418
497642463
476685504
551019125
39048135
162432360
806890785
909203277
653597196
607160049
481060797
582805973
590945409
480625933
879764086
320543907
697200923
865266848
86020028
635338154
769299777
632479784
379658370
999860762
813907077
606486445
77110387
164151
613452188
4842827
789074699
144723269
888131050
679758186
550213499
619935657
393765443
627473682
855589592
794932662
169650972
315031056
115633685
763877029
421180962
304666199
894885073
898889207
367811303
733241049
958458976
1479452
840038828
708059860
850464771
567967320
358953585
889806819
307576191
837599946
749028017
914799023
190386
801476972
2322967
244569872
472104615
470296580
543994611
993255696
306929043
233798330
8439021
30795783
714275165
475272616
301181485
176349632
327556535
121340992
145128472
530236102
950560682
612101035
273441120
88278359
736127709
666629762
479382153
959752573
986079388
268923143
546725027
859634264
472805581
736146421
57488217
449247458
990138335
925327059
755351620
756749362
574420352
91101333
822920265
38919695
89492382
368830800
834112120
26635774
367203669
389851658
451452467
964598383
986319833
866743386
424006216
526026279
915312947
358930590
698024913
333772053
468489767
261458665
973206540
543847990
709711469
546789980
3635113
586936384
290437671
97389939
562779535
540553667
38431892
788137384
114719998
306209078
742483862
805633381
113822748
163445339
682997388
427983606
268104578
781121341
136786789
408753493
284910549
854349858
216519087
257250471
672680075
22716
982295911
699337468
14325534
241155415
857246033
144950739
438907004
67574948
427721561
473311628
93321131
856745805
315091653
260632130
980555780
54661061
364480560
457778836
859311665
314537894
582941670
644417852
262264104
278636592
111793702
513994873
893419714
358235623
519833927
60159840
925588312
680275935
114710450
792367578
684401618
616606053
629672901
279624438
121174104
129352903
763287282
568155021
756134465
920771178
565735175
63964285
959447946
56623191
548668203
797068072
10609
679761755
830992481
67174059
58226001
460913320
220951473
305447286
147313024
413394765
38527063
219428228
158184731
224879207
746576301
114314018
980135688
876955924
590131782
835867601
27433146
374749499
249896134
429956072
550819090
604311545
328225117
494125002
592704774
714749144
577088804
633124135
824751366
11367009
167572831
382568833
378098136
97479468
4868631
794501822
644627781
123518568
307214200
249488760
762004541
29470741
3588200
265669707
856575957
678567238
24497
847094039
663105252
111034773
664767448
394676965
2845492
399648647
698519941
92797760
461996069
26939890
44169973
313048614
734802559
67124558
774399964
994311142
674570477
95136722
911231300
771970567
607588580
842497944
325519741
779679249
1266104
49349500
111457621
302992634
748277997
341521506
311171954
325657898
253179419
968123426
26811118
818831112
747922626
205154088
836425510
572321503
168760687
193698450
201033352
582648396
126227290
281766504
18
384683752
163067404
380202421
240240996
943622194
636502290
18174157
422292811
390427706
209624415
107555339
314301336
435267227
794364850
379112453
726814976
526692187
864665442
64
376504593
950437452
1
148119145
542970741
862014085
375850048
52633915
674537135
681820355
1
69284030
813249679
439730169
939544458
914419247
569395692
778827010
730224125
340710236
816124390
596626540
909847586
852892049
80385139
475357740
198449591
147792350
630459368
683352336
549255024
747357938
492248242
356517607
166298245
921046633
351249862
453434517
737759136
949515925
768624466
473009477
590174524
394590978
961090542
919400200
322144633
44321497
776483929
832484224
426509621
169222812
301532481
523860839
386750094
107043854
897827900
102868493
996020862
645774903
272999575
52634564
996965023
150603139
20583388
972771412
801227575
300584968
884545241
190147102
789187490
367875702
345141667
743425729
143953158
55662787
33124
1226
371423836
552755144
403535423
974742452
129311021
412638312
803268604
380208285
596998384
657771022
971561175
994730756
90568367
765690358
465472287
706864678
500995095
176191316
12260714
65991613
200876930
33
578186754
757509172
118853584
436425826
53554666
759771603
9317
943002999
606104576
830064736
791645346
855417281
919474030
85497646
167506404
939893314
534084037
121830482
76544995
880083520
368467775
549229771
948277368
320342390
687999721
57416923
333686618
124199914
90185585
578190144
389752160
878316666
927454885
480625407
379254398
220982154
642424751
568779449
409903026
633072896
613251460
63492739
916624611
292248852
103625367
967934322
549153617
918148116
533994198
466833769
7845478
321135985
834107333
301533209
188256693
143490670
669158901
320849806
41372453
660195386
304998423
373065350
767440880
774342874
131431133
245392713
624269882
902544712
396592004
777390059
200861257
711506950
985928276
850577038
647710392
498119721
408151868
986462902
322726786
307243354
826630872
838949881
213954919
705047578
491041032
424684779
354145342
507902592
556834932
477237413
681359098
15022210
162906357
837044000
917871215
891533498
713918439
709263980
354948317
982298820
8925288
166784596
258205711
543786474
763408416
543345216
964115753
150977030
399058875
599464911
283362910
906057165
170090535
704400942
824844450
767926163
577818372
973886344
590300248
274747650
207491953
546768486
475329825
106583985
56967449
599656529
109703781
890503564
555163719
483016303
131538768
58547517
426373137
512261658
794255388
858420414
221769916
151858947
616292114
721871056
624513219
951358436
998688359
3969511
665631943
3616841
270626906
72104935
81492390
327504047
722101319
307056795
216072291
283909967
450880873
811507487
267671954
508077285
502762565
417906059
131095588
32440148
51906893
3912826
728509949
883967732
950640645
4433073
405378652
46176571
375813113
763636376
848485644
451218788
989734362
885823439
633572664
226437625
683495309
219061088
76109637
979253245
762775455
621241162
295532269
130
490785426
897706219
630423109
880583847
5828977
285684492
832322026
821400927
638963796
571146440
292362610
44240746
20306866
62660294
119904727
16386578
526944323
4604719
69835952
457567043
544292519
597046514
1
752645946
718902799
692813965
911413924
808385362
236331138
669960595
16995444
750710553
203226613
124661840
849377023
617275855
84190600
889236340
537787661
911575508
129475618
162615473
865104545
723036663
164861115
2775205
196608485
15052
854393221
972330654
79415360
40780580
889627526
945313191
707665804
831168549
218350183
1
908917704
403031675
372032756
727610561
369338402
106170115
729727905
619343450
274530197
292821794
991677359
505563728
268055955
294307274
908008021
764717757
870742965
974288148
293025126
728961254
833644523
227002042
248173524
414293534
952022218
472109558
383500929
844627065
81014324
765712869
692442818
41178969
34417025
42671853
609396674
312786691
479296159
19524743
902531515
693992577
184
957264426
717318190
280930026
405927008
469459315
998489133
820428678
73887481
857556477
950553026
31094383
1
310896633
507573035
318063884
329884866
930692653
13830082
708977692
736665716
303989383
74982339
16689360
904908500
76643507
338061516
67156839
615401384
494548685
750827134
847054179
658691720
758888267
8064918
919922860
683562016
851437593
870288563
564372106
485640606
692410989
47999566
543353173
674847377
388610861
379394424
956675496
352119430
441911893
83991212
933602677
218405156
294656065
339677450
145131091
627565894
240749408
218341248
352021973
728707163
61520899
265877151
785549351
911363118
184355125
103753957
366066122
375056741
732225892
228278425
138143325
16244236
129548660
829002044
110605392
442131680
670744955
617515856
878224610
72726202
192655176
152367073
757309158
894681883
501317511
972977051
271108946
10796500
218955198
475508496
85214625
934880863
999064299
337564098
367652937
139843818
741344354
996361337
757323433
267191043
864928100
4579306
6023273
645469799
529086279
527056355
5006617
913689717
244075895
907446988
363523359
951793829
847315791
610428473
238789037
726911915
555992502
338788227
127752806
409559653
935505789
2795121
240774861
103279188
932425046
716306546
293825606
810114346
126305907
761544226
770801650
416618266
280369891
774883970
259290220
278627694
901605299
191094952
907728257
6172708
722168655
812099249
95626649
118748072
621382
773135992
457924006
521636099
386592922
3100651
39089845
59579167
637203627
869465256
928579717
547844778
353402480
831902230
39539326
339552454
29987480
104078610
499360082
89146882
115450136
101223010
229909845
1959672
105054077
670593259
990135257
984364593
472909360
717388717
489376271
2416
156826275
326857934
346621951
383355438
673767462
420339005
623017930
344530530
336471753
70838549
738304675
474517059
28900
104490990
654079865
558394619
686826841
580868251
665819270
717589004
579336919
463147769
361584155
631663887
659230339
611188691
633744685
368593166
992056707
801804885
707749810
900351365
791146597
11007270
944356385
887416936
800719535
678134717
503961546
668248522
485146481
120646033
70681328
473746717
438805982
172
463556782
50048924
49329244
337380569
819104
402105841
122926917
556619539
266681076
73536630
282234425
849061761
183016132
758929790
594916259
24486371
671842948
580005826
632366913
490049174
182535040
72432462
410198651
104153329
866493691
662740541
462783090
994940576
924956822
499071759
913091697
791482384
790561022
331129428
610999690
804840546
327203246
237707774
502623202
485214323
999848013
903271908
576406079
967785214
634538882
35529356
683321137
741003256
575648738
553518232
977320400
757218358
939169032
903527638
843502410
947263262
937215775
432870219
418613936
820112710
99514673
774499702
620553717
521477107
883416493
603826206
347115543
458166928
25443947
335996365
292779128
279538927
2060401
972647396
508339877
348163541
482238740
273852872
240090193
490901903
64799822
187715587
586586439
360527958
906062076
761282983
614213666
786689092
274016788
715200472
975448657
590661769
467366317
624437687
798398036
821643711
554469504
743132005
755293225
785133781
946997945
613029095
136660355
682530454
936818334
957192569
625199214
683808246
658711
546845570
503865396
929307377
13216268
323397099
649264716
263412513
629509503
449375052
830197458
256824311
816253491
636844638
76957509
504597367
105946538
677539201
70713457
236414875
951966152
623403508
630410760
284239215
616018767
319805593
769108589
799525026
521104635
266998409
408767410
886612763
44842080
1
39069059
9076
402029477
830831516
810259272
364198590
894312579
81024082
723108106
232810557
872433165
827465928
118515319
8129
513589044
489023243
106305143
933001917
500208509
113315736
578201610
723871829
685370128
530352285
926196443
777220026
897894627
169
168949970
609986078
846132157
1704377
743335247
140044
829162090
224127304
725207771
886019142
971808712
943861521
122755950
505536390
197411189
320891672
175696905
474966234
834492986
637971611
113772114
259879877
459222473
877398494
315369502
709880818
496288862
529452387
89601797
474873861
246833490
999659487
554133086
46720978
17956
964216176
559683017
315379032
806533125
396296772
419441
430981037
690419138
907669175
678762157
782281566
572380644
701076443
297255156
910074018
1
679902061
846980658
987083976
507553218
156543692
607915984
924984687
290905052
526699726
481091215
5701731
910996569
819612756
790580129
211531686
289324755
225248359
600776860
257530428
452118859
710089408
518542984
479940567
403513754
910888036
865250952
688117794
139300800
223606795
463708559
765822980
20089048
74826654
683724636
476904734
142118402
393698196
909425311
898817720
32184169
433928203
781148834
214106914
458612264
923572240
378627178
13
304044914
890924126
131947688
407
989234511
483266849
691465882
552103328
619128997
813874970
1521
141401130
880461958
981489791
61111668
4293872
65875009
729135277
149546536
129019615
804430860
857408697
441592121
347892948
171544717
915458859
84631069
854617566
718352340
91517634
908060615
748749339
748675862
64704454
195631292
797398937
141362334
650987461
581167073
883280686
740285474
345138026
964352561
611021763
364078987
932277643
194886770
427890129
735393506
411486049
438027738
157158082
458794297
207249442
361719631
218833178
305464063
711091604
914988441
438714409
289433522
336154039
80280336
396808798
950725012
637663375
348343381
866491478
686247534
186695679
894182044
178179960
468223043
738644241
23683766
543840473
313803619
546606313
367225986
235328631
766029293
179600574
739648991
165454786
908050071
470927357
26865805
904910355
963973256
490489823
208024221
70703797
591318122
470068898
577690650
130455798
923699055
934282741
118670240
308036980
82537508
17676374
169706951
811289486
673556667
676554695
690804344
424759836
542557594
63194741
55450208
16837
378310523
401298928
267442330
884236
471055120
457904736
944612909
770020476
184957757
67760741
835070131
215902696
552688275
122404765
419740556
619374504
96176014
954583931
908152407
259900751
700435384
437275924
724914495
588662084
541554297
739575165
956083379
456449736
823129011
465599076
533493067
939001598
246324050
174624
731060550
757199702
384287867
483631776
806201570
266552880
214323593
981790580
2360
90069024
1
361540803
349263928
350904052
245258429
542430850
141710566
205360111
898993547
482305976
906683030
800814441
926834005
932963167
490736001
600388284
414400133
745158749
113864328
906904052
161779913
226763352
378586464
627343916
17363780
931226024
484153980
592576521
500917962
288109395
204307094
221892138
646828118
440981158
702748511
580362245
54034205
26338438
526006665
626087537
671327224
878998596
497822339
12435644
809482499
430181190
366430423
460968523
355847088
427783327
455364989
149768510
944993115
626296339
601034185
912126682
840043382
849743012
708265260
182176786
762270254
621326281
65640543
926128125
514371771
565820717
30472030
542726943
847643596
812493259
39316432
560722182
259477222
480139615
648885701
922512750
918793419
389098511
315145724
443247846
857808713
179421786
881646597
623374936
290725275
362029414
34048472
157025169
916611635
966878013
505428328
816272722
912248307
741535717
365219952
963529241
786663666
241702160
299502
436024048
870745074
663458594
637363189
240487050
714127128
220535264
288016381
769234517
790881772
872333778
444903270
238063166
488481993
214965866
196112124
4173964
443553057
143979147
748830314
700909170
335919323
11
667010182
923336466
138574274
24666993
92039876
773518319
748272566
763238906
123998555
607988689
236842352
476489803
974191078
254119367
395750646
59227165
147099304
789058446
165053565
31496049
500641321
32400
516715060
1
788369559
604988584
495301866
831023412
16894829
59375872
326840838
151751759
833342270
43440434
8502432
440467081
535089065
362885494
864028775
423794479
455157259
346485162
415604795
318530131
824318598
113806122
981045326
687800215
771453585
519010515
305772717
489613153
314193954
926048546
148451117
239662191
784670962
210839725
826974991
973646564
503626854
487213716
615960120
791146571
194697851
806575832
502955422
600428336
468251604
93831674
363684402
327596670
73492344
796700117
52706398
810507550
627174116
37836806
941929462
971179649
594888298
572740997
245567502
24582239
46287775
506864417
529084128
824670063
940116218
262375036
162708854
696937715
258734052
292230328
882678598
338096416
415524604
920266730
883624049
466464559
206195845
368943507
85778999
102054126
244620771
127905499
508149348
371733477
524376965
721896274
904261906
620558121
659271350
815962299
606770568
102286028
833503161
585842985
584921624
972975899
40
290322680
386964980
138286334
828537457
962807808
478376369
776633609
50267
60629198
145448726
19901
207628378
452872532
607772844
156410848
685840854
810940
655845751
576572690
834923406
442260065
609135674
976273776
302128439
603332475
195481758
203481065
30538414
515051846
149
988734156
476913914
688817578
506052778
396985669
54559461
431588195
407324710
23208557
84737009
864343897
823125070
566322419
152812058
425248529
751753509
727020812
712451349
1241383
276509494
401596085
442319609
260905610
785985522
156067444
429273040
516092006
476004672
389864910
501859441
82299005
583946902
578493226
439429981
459393291
664335016
880329218
282653463
31641640
262056224
707300849
656384101
214808463
534153499
703574675
130652472
746019138
94487043
364238898
600009281
894191301
272008426
825010841
740155382
991674633
51585439
2
916709758
979150687
94934560
516863104
753911789
655124895
4746397
440888240
227706331
630785365
574042697
494235793
861248398
53490988
125226490
305318682
440222572
712863587
484592398
298521426
989691947
439383704
775063629
402979127
965070743
62397798
588931447
585567589
265604506
93364186
519238885
538198657
383070450
307485192
578717059
450816928
459664592
116665755
72858860
35661248
179736783
974783218
652114363
251130916
788411703
39983079
366053335
458842096
231620149
583055209
535085150
14660528
35222981
280474810
959214434
965996398
459739549
575089561
932850557
958216695
762995539
919935884
386367577
648313757
502119416
207521221
88441637
293938053
254364466
706190231
479957129
210574
608227477
858407504
472377490
538207103
851155176
715329778
332102723
282142219
395240366
368587075
178057529
172164614
6745872
722400758
741570837
106588440
86354290
909201588
107915770
317663854
520732109
428073093
292446344
1234480
595783141
28463924
856802509
623807654
768422115
982363523
668148973
89693776
953953414
927042000
754451113
20503850
380093518
9523141
363436419
768136431
11088
655307725
563243180
878265943
179835921
978144232
737045428
769952847
22958450
971032982
342861608
399498786
69979026
880428967
269125261
723436732
920300061
644799561
62111270
863120799
2559019
364300836
551811019
371193050
740999029
384587561
248455290
455188820
483278728
183145859
902082108
607288683
400844359
550912806
904216808
965003495
920336152
511486543
257673813
936308341
674748005
988767788
233552601
375038150
1
551548580
22912083
607281443
701441525
997384162
700301786
442494290
34077516
138297256
918827385
859964085
95143324
831019047
130890433
679096157
130620134
45416897
922263284
482352670
96301955
399571287
896129994
758025526
55657815
423125947
716263341
511672140
981075007
617460134
1
869802781
431944401
237811933
696861475
884294313
104714905
547595789
596934230
697289214
51027755
900836590
258231104
367753496
278925049
855953742
616232389
251859200
193008449
315340561
145526565
153269405
216600593
367653979
761451215
421619631
139175585
18722
669769360
819402177
409681280
119999478
204459052
662070861
819371702
581268764
163706732
10529038
866106311
267251085
704029259
380777704
559738365
115679970
758025565
902625560
514463529
791399948
237771721
742899475
230019308
247885442
985785504
48294067
460226772
499240
385862885
153294872
653215279
79053213
826187575
999637532
907299384
285751811
381656959
972466067
630067679
1
954347214
899801815
83904978
899888248
186773014
570058826
827142143
867636718
8580221
856180304
700361182
600515354
299019754
863992407
8221474
308929313
849112585
555267097
375812447
972402947
316122617
692413900
257121010
266705904
396046057
664704759
967612180
209867075
897905022
350311854
198131470
281848308
489374114
511877366
992632305
3946699
215159201
27784
412776563
617093174
674176380
194074281
705901835
92472572
669645714
914724314
144923348
43614462
904249911
572862558
521681797
957904995
960728204
131670758
211664606
430565037
240643788
461234817
277759541
673315498
729408548
360286012
548722376
566075820
550899032
947855203
495224479
809037325
758896095
68733974
812033164
515482859
69354296
927112683
481538978
333195424
507105521
905581129
49669863
29369027
209464975
101708730
54496008
16472
733568610
718668676
283651640
815582116
171753248
960483014
763047115
103768260
809318046
2322173
53721817
343826055
75664567
419353011
18512648
489308319
356342239
24981625
264345820
413641448
56049906
562376646
197573858
319772647
536383846
955485708
880210519
676600304
625968493
771029903
752307785
125351098
154207594
29464580
26896
667491808
157885690
589719683
153983634
708153719
977620809
864288968
302413620
963794107
48564189
365770139
682147232
655461306
939818665
327344295
148654711
681051850
963012871
106572003
941390102
277522420
579773574
621147087
881731238
73712644
438300973
744415300
747806119
630535724
295731011
400489047
63799166
414612594
16651105
34204017
987324470
991137788
970024491
188
133135018
332337867
86514796
20693767
400338942
503730532
406441368
671153278
776541080
395209360
924690863
858136368
61530160
889042376
599050320
50672234
855788717
645257949
886617644
159
146320964
705404414
564412937
923695905
478090498
939696648
155572389
644203086
285555421
811274330
392618698
849571181
710457523
336880746
490591939
22
824217844
805362971
621853155
149487111
469838409
554392439
517839665
350704805
893054195
771700781
65588795
728525861
950934977
794298522
816125407
830640206
388608212
368541531
481211773
886775731
928116032
342317800
786154167
68925482
542556713
333704159
111399940
807097917
318828776
100507798
814222015
847057493
15786787
93911149
50699017
372632319
77625381
673718803
262635230
166803820
412605830
940186658
33301109
200687244
2054908
123449634
783256034
128830450
303972196
960208975
568811581
991001776
730430810
74496760
843349003
764183063
116357083
665104230
91521609
611436770
541827690
827679882
369224836
359472234
379696746
741182726
22453595
214116059
303767705
268970653
748797205
959302508
398414910
129486028
236463803
82795538
72161762
47086242
983289136
671121255
125
43629228
94819215
164218340
391489239
268782321
422925981
392392330
526168322
926368774
113821273
587150849
69038072
641555208
810378669
442118
954047699
50918347
611005643
649141932
861983354
193755330
834588992
293388032
690523310
463429237
744595834
734148214
269168413
142261016
947192934
284762216
692349589
333833186
256877385
404770844
258920900
223303154
438190412
550882243
605205601
258370922
677282262
112575381
167938050
807609359
721434237
360519697
98937765
946652140
735467291
642373698
96109505
162346554
62744671
50432432
763135716
17
731861
287410853
573746118
921738495
495692011
663157992
158337827
651375419
228004588
1031206
941494005
565053421
135390200
993738997
310996686
137576914
10192152
127640052
841585732
596798645
212671771
5357
306285656
824389367
894937593
487951077
128774645
427327397
167169379
798117897
637599452
747210558
319091290
799893845
956923922
56
369414621
825007518
964310020
896681033
593560413
792435709
698714246
88494313
984681946
488371164
1681
540500217
846622
318731173
514960134
264424261
240786300
298974060
104566482
408500381
946157487
148851046
129958393
345932634
627465344
517312222
29090458
670129665
884551844
633492163
288061435
906480740
923362050
393787780
559802086
392122913
746274760
188245454
478996020
256003926
463452726
737981886
188189073
666525277
538650234
644583202
267211379
876471079
794788286
813427086
86769621
674357443
286046924
244823799
471835
122195784
85260971
373508834
181689040
63317757
618024742
12723889
291084479
497628920
791070236
470724262
337302623
41232113
299120657
776881592
203568234
190
362101301
12942864
393564793
665191840
825535516
838675764
339190770
678256662
520242386
133186534
893465480
332598415
839926818
255197339
481056163
153904064
358450084
847128958
354960824
504412939
684635600
1
570917349
509506476
437481646
600447337
267592921
886119459
285199652
254334546
654207943
686728881
327531035
442722528
58348409
879915644
134435456
446472613
241831898
732179735
132524255
524082881
157319059
915185208
539425024
1
155401546
151162496
5678340
214167235
480572652
725323565
178511954
271640539
425188430
944817679
743101866
388411680
937458303
575172274
430079386
604447871
714496451
591096946
90721028
663368223
820179430
188910170
522658818
56137340
617008978
830315728
334794423
897694627
39180199
154687135
400192988
332149630
617581377
730212631
816642015
150121994
709226934
523800288
126805167
580888390
391597827
67333163
44
924127256
261026254
523604712
945522945
587647871
253120060
190623549
731296111
301147474
17281269
467295267
8386
925657369
825601168
700275925
546296402
556414414
81013882
714472233
275750164
656963009
779010396
641797165
141007013
766601265
69185239
633269033
862636902
37922672
550534593
764677436
589370369
46
861718987
252707228
629416409
625986837
127185581
456005753
796731359
774301100
867428716
770867615
440513230
707393986
41486150
927178487
320351960
622619234
408126814
629866993
161407866
55010278
557439582
15339069
835186967
374485803
971099717
445850580
26373653
8684497
582055267
978372266
761669270
60267918
82009190
651856044
226412049
12617738
319267611
797406409
252155
149349462
473386884
94677680
11
446268649
373352468
135365122
811160306
448472432
892217868
457973318
687400189
256752421
200221817
669513202
840073826
520210241
927116774
745867951
949876590
247742224
528331937
11017378
861870106
98207810
325040926
1296
64041400
930299174
837055085
633261252
603595958
364438599
388997370
989478684
232292608
486487254
747599703
713293358
951348562
620983065
210017612
29787380
522060324
485360127
304951615
891873880
986079895
225706765
86546923
53016112
715272538
214164023
164850518
139801227
476134307
145215673
573137759
576525984
891994123
503749706
269867850
406375635
94462460
882007820
602625734
210831670
625661741
311508090
253255133
365105648
885803474
237662128
15057665
349661458
923592293
345765216
68472481
360553884
793021215
137722322
565346919
527745175
110206334
152932924
147043606
462177435
269668371
755045558
488460594
737396364
586124030
999089554
950813592
306652286
93823571
508764955
384750260
783467924
163876920
587822189
172516677
26099116
399165303
14479774
762469838
630936820
990660567
857669237
595737097
226074358
899737112
666109941
976032344
407669794
286913861
502727644
57881613
416394
492309613
306149683
751474237
840634984
480687779
895306153
135829380
885660088
648395504
949780142
459124692
788899658
641224041
821377932
322902365
117983574
521208776
764018480
743409430
454646750
266805640
366548149
499634527
231478332
928740743
48408713
55656172
466625423
692948256
695327800
412484644
67826030
488151072
21744972
756808497
472251019
871969920
878766200
344942385
332764790
704977897
756014462
631248804
347849497
835046980
13367
161050963
199974950
683121156
806648427
188069799
238038961
316353869
469803187
2201815
434630002
2212
460383630
940669530
568744455
739303534
675766587
950668823
793092
288145
707720771
72556261
905824661
757109591
244577289
813970670
905061046
77301452
783603171
834340305
898900291
703192515
963493814
541151867
311210149
719208827
924475166
9204197
310210638
5475030
610169669
672598776
8257
507009568
604893967
647757312
403646796
637344873
847194894
738787716
731885741
17311880
513274933
975533121
481493702
893528928
207267502
46603237
663794147
431308536
893886126
986621090
586815667
674154706
926317918
242777564
419879019
854568399
833826203
18265608
623778998
61574472
756979928
769300831
137435090
58954254
824542661
972470751
688506203
87927194
728946966
403944671
974204924
69508345
84892468
721560649
162110718
726454639
767232264
434616665
905618583
341935411
586242288
808563984
822548652
583956850
20015278
3
142035040
930151768
713165820
424197431
141369425
984271222
326546468
804587509
771050639
34447
98898375
118058791
204991943
514255874
414307346
126451599
630214434
824606778
788143314
624582884
740079339
116903872
84049934
67504615
659465024
570593941
193599041
186719500
43
3369301
471304538
405739786
685424285
6834714
496429817
636776974
26193428
260940387
619333150
412335944
513086442
908130053
437050301
646464467
933687812
131597667
2671380
529000426
974983422
161834401
278708191
907490877
135917524
933907566
866757324
594874367
968109260
883034383
49019714
403562000
880284765
422967080
901859894
66961925
605962283
312058587
684151224
942066097
37074600
488824294
906498025
210723436
896896790
817925251
719531484
680636180
37538138
441953793
46781
965720926
17105300
655732539
216242166
648635715
256772041
773294402
502286546
659969585
288328643
247957099
15146403
161722317
271716644
564763577
869235749
304245326
152143804
954345109
929200374
783684602
689828101
343426095
638714226
425201810
841080940
417474412
488129148
296838703
737670615
131513985
412290417
448929881
111479418
850410058
210939240
761318946
544723979
1
561568946
176744161
184840252
740041100
756004831
442966449
287142273
673764048
354639334
342709383
431898504
435535757
802481807
404873829
529478063
284191112
173404379
431510928
301744126
7774662
979547611
427290813
622555494
964056631
898705360
335132513
699945455
426875140
819851738
192907286
595035536
542878751
400905966
831435666
662416791
513009725
677438222
738697418
870391848
742847113
832266177
34969
485093852
471240770
378234123
98038190
704742440
254985133
663079636
311212297
29785969
884475377
915571246
384420135
413638807
920182766
951671792
844134517
782078636
887524244
511793641
786945418
590320636
756293453
60931168
190581179
247831908
1024
177865702
333077954
67279729
835267534
453816339
343318073
297179833
985887488
56752391
879812062
795393246
482520395
647488285
309622415
525357429
826960461
184877132
288142639
565234157
294460028
542540694
149514965
127572382
163466751
70408355
603022814
726852944
151153833
514941646
495600377
442210889
942603902
232969017
22352
854098350
678760603
921968765
666032170
437520651
875476885
280033979
61755
932084241
870828789
621263664
559854406
4307171
282471966
438282072
333949559
6540556
696291924
745467198
693787276
667109519
332933748
633724931
756057966
902187716
240404851
828032636
818467767
267874342
323644768
674395995
465368043
233344957
256812940
362462852
50122045
219646
608883076
239428530
946428808
690232100
563252769
83295864
19116871
803350692
860149598
888493414
707117646
895433117
358160222
162639132
569867698
621500450
629531127
234267571
586629720
218780627
594700500
836974573
144022523
108060514
287823162
148726268
545900031
73477845
359615056
614288552
971927036
807546575
914215477
937545599
524955771
638094341
370341536
458359114
894791260
33949058
637689628
122036070
718856322
289
653698738
726788608
931385219
355696005
283867213
123523142
36
994733063
180887488
19730733
854802453
905773767
513790001
40778576
841365682
71676987
677524202
907747369
160034358
593206073
478917159
538100462
863228332
417375073
465649028
195669234
218536193
932343750
381762985
166811050
589156641
117643027
529773437
993342347
203939386
855699224
819680497
546571657
426882484
983064673
508639394
897347830
153061838
66590554
645791431
752509133
345388399
554519414
550446283
955708844
154048128
49620350
898152934
882464594
512719356
26699619
977315944
729472570
317987719
525260987
856429763
931278320
159245430
926914657
787322519
41323115
753894067
804982138
944403259
267907134
724734386
19108311
768188103
324546084
471358810
83680859
33071080
157
668329333
775198894
159333785
236687712
848994016
695553738
374187665
479994561
29267855
147332020
41089037
716385909
168994255
616047544
333118832
218814783
63403713
335049140
740250650
587686612
767875379
477416699
205649026
969314070
478400719
218283880
635624385
93650735
510063798
455095550
818003451
185849805
174421287
395917689
103286447
266276467
49739340
40671280
344622719
817830947
144085712
564216530
221850248
626362663
949851442
910442304
578201069
579381601
743421079
556670562
558050923
360389993
334914731
513290127
913175162
496423442
445184166
431243281
133976530
951986585
795692484
181380951
114944936
364023218
751973628
790808852
105871591
945329536
879368257
532942055
63378125
250211336
57850228
293925998
12174
209683111
5955482
793554623
467600432
924225709
908232292
397714248
909017449
401068943
683214023
517491072
78354
159961392
599910623
694479161
322519013
734870144
660177760
546311522
975426940
369717557
206508463
989356375
971295989
880914384
774243274
324425920
572301132
803698133
599758895
988027596
720285908
688098424
336519484
877384149
82244612
738888491
31136878
637816541
479103376
275427723
169032228
582069954
772944699
741857731
497628040
53353218
773073205
657420763
852317455
407170687
398449555
88458353
412548030
18445
855362055
178512873
797199214
672425870
926824945
801027117
678340832
250289689
296591069
680934059
481900660
60150112
627265441
962835264
301366201
730697557
99015359
964836288
106290752
925058551
571926327
317702789
352586308
609365115
467656061
731813419
166824307
299891266
132217811
310415957
160373977
708291835
594540648
218482487
535096968
211248421
646140931
976774318
677447528
396076040
908331390
2188746
73234770
460610776
64876589
2081
798694407
710087554
109770044
214021374
820964222
269630724
150837435
388937753
96316493
801824250
663598582
671596431
967944516
501226555
787588101
937567625
178579050
49044630
893815006
